([('fracatux', '/home/arnaud/fracatux/build/fracatux/fracatux', 'EXECUTABLE'),
  ('libexpat.so.1', '/lib/x86_64-linux-gnu/libexpat.so.1', 'BINARY'),
  ('libz.so.1', '/lib/x86_64-linux-gnu/libz.so.1', 'BINARY'),
  ('lib-dynload/_multibytecodec.cpython-38-x86_64-linux-gnu.so',
   '/usr/lib/python3.8/lib-dynload/_multibytecodec.cpython-38-x86_64-linux-gnu.so',
   'EXTENSION'),
  ('lib-dynload/_codecs_jp.cpython-38-x86_64-linux-gnu.so',
   '/usr/lib/python3.8/lib-dynload/_codecs_jp.cpython-38-x86_64-linux-gnu.so',
   'EXTENSION'),
  ('lib-dynload/_codecs_kr.cpython-38-x86_64-linux-gnu.so',
   '/usr/lib/python3.8/lib-dynload/_codecs_kr.cpython-38-x86_64-linux-gnu.so',
   'EXTENSION'),
  ('lib-dynload/_codecs_iso2022.cpython-38-x86_64-linux-gnu.so',
   '/usr/lib/python3.8/lib-dynload/_codecs_iso2022.cpython-38-x86_64-linux-gnu.so',
   'EXTENSION'),
  ('lib-dynload/_codecs_cn.cpython-38-x86_64-linux-gnu.so',
   '/usr/lib/python3.8/lib-dynload/_codecs_cn.cpython-38-x86_64-linux-gnu.so',
   'EXTENSION'),
  ('lib-dynload/_codecs_tw.cpython-38-x86_64-linux-gnu.so',
   '/usr/lib/python3.8/lib-dynload/_codecs_tw.cpython-38-x86_64-linux-gnu.so',
   'EXTENSION'),
  ('lib-dynload/_bz2.cpython-38-x86_64-linux-gnu.so',
   '/usr/lib/python3.8/lib-dynload/_bz2.cpython-38-x86_64-linux-gnu.so',
   'EXTENSION'),
  ('lib-dynload/_codecs_hk.cpython-38-x86_64-linux-gnu.so',
   '/usr/lib/python3.8/lib-dynload/_codecs_hk.cpython-38-x86_64-linux-gnu.so',
   'EXTENSION'),
  ('lib-dynload/resource.cpython-38-x86_64-linux-gnu.so',
   '/usr/lib/python3.8/lib-dynload/resource.cpython-38-x86_64-linux-gnu.so',
   'EXTENSION'),
  ('lib-dynload/_lzma.cpython-38-x86_64-linux-gnu.so',
   '/usr/lib/python3.8/lib-dynload/_lzma.cpython-38-x86_64-linux-gnu.so',
   'EXTENSION'),
  ('lib-dynload/termios.cpython-38-x86_64-linux-gnu.so',
   '/usr/lib/python3.8/lib-dynload/termios.cpython-38-x86_64-linux-gnu.so',
   'EXTENSION'),
  ('lib-dynload/_ssl.cpython-38-x86_64-linux-gnu.so',
   '/usr/lib/python3.8/lib-dynload/_ssl.cpython-38-x86_64-linux-gnu.so',
   'EXTENSION'),
  ('lib-dynload/_hashlib.cpython-38-x86_64-linux-gnu.so',
   '/usr/lib/python3.8/lib-dynload/_hashlib.cpython-38-x86_64-linux-gnu.so',
   'EXTENSION'),
  ('lib-dynload/_tkinter.cpython-38-x86_64-linux-gnu.so',
   '/usr/lib/python3.8/lib-dynload/_tkinter.cpython-38-x86_64-linux-gnu.so',
   'EXTENSION'),
  ('libbz2.so.1.0', '/lib/x86_64-linux-gnu/libbz2.so.1.0', 'BINARY'),
  ('liblzma.so.5', '/lib/x86_64-linux-gnu/liblzma.so.5', 'BINARY'),
  ('libssl.so.1.1', '/lib/x86_64-linux-gnu/libssl.so.1.1', 'BINARY'),
  ('libcrypto.so.1.1', '/lib/x86_64-linux-gnu/libcrypto.so.1.1', 'BINARY'),
  ('libXft.so.2', '/lib/x86_64-linux-gnu/libXft.so.2', 'BINARY'),
  ('libbsd.so.0', '/lib/x86_64-linux-gnu/libbsd.so.0', 'BINARY'),
  ('libXau.so.6', '/lib/x86_64-linux-gnu/libXau.so.6', 'BINARY'),
  ('libX11.so.6', '/lib/x86_64-linux-gnu/libX11.so.6', 'BINARY'),
  ('libtk8.6.so', '/lib/x86_64-linux-gnu/libtk8.6.so', 'BINARY'),
  ('libXdmcp.so.6', '/lib/x86_64-linux-gnu/libXdmcp.so.6', 'BINARY'),
  ('libXrender.so.1', '/lib/x86_64-linux-gnu/libXrender.so.1', 'BINARY'),
  ('libBLT.2.5.so.8.6', '/lib/libBLT.2.5.so.8.6', 'BINARY'),
  ('libfontconfig.so.1', '/lib/x86_64-linux-gnu/libfontconfig.so.1', 'BINARY'),
  ('libXext.so.6', '/lib/x86_64-linux-gnu/libXext.so.6', 'BINARY'),
  ('libuuid.so.1', '/lib/x86_64-linux-gnu/libuuid.so.1', 'BINARY'),
  ('libtcl8.6.so', '/lib/x86_64-linux-gnu/libtcl8.6.so', 'BINARY'),
  ('libXss.so.1', '/lib/x86_64-linux-gnu/libXss.so.1', 'BINARY'),
  ('libfreetype.so.6', '/lib/x86_64-linux-gnu/libfreetype.so.6', 'BINARY'),
  ('libpng16.so.16', '/lib/x86_64-linux-gnu/libpng16.so.16', 'BINARY'),
  ('libpython3.8.so.1.0',
   '/lib/x86_64-linux-gnu/libpython3.8.so.1.0',
   'BINARY'),
  ('base_library.zip',
   '/home/arnaud/fracatux/build/fracatux/base_library.zip',
   'DATA'),
  ('tcl/Tix8.4.3/STList.tcl',
   '/usr/share/tcltk/tcl8.6/Tix8.4.3/STList.tcl',
   'DATA'),
  ('tcl/Tix8.4/pref/Bisque.csc',
   '/usr/share/tcltk/tcl8.6/Tix8.4/pref/Bisque.csc',
   'DATA'),
  ('tcl/Tix8.4/bitmaps/info.gif',
   '/usr/share/tcltk/tcl8.6/Tix8.4/bitmaps/info.gif',
   'DATA'),
  ('tcl/encoding/iso8859-7.enc',
   '/usr/share/tcltk/tcl8.6/encoding/iso8859-7.enc',
   'DATA'),
  ('tk/menu.tcl', '/usr/share/tcltk/tk8.6/menu.tcl', 'DATA'),
  ('tcl/Tix8.4/SWidget.tcl',
   '/usr/share/tcltk/tcl8.6/Tix8.4/SWidget.tcl',
   'DATA'),
  ('tcl/Tix8.4/SGrid.tcl', '/usr/share/tcltk/tcl8.6/Tix8.4/SGrid.tcl', 'DATA'),
  ('tcl/Tix8.4.3/FileEnt.tcl',
   '/usr/share/tcltk/tcl8.6/Tix8.4.3/FileEnt.tcl',
   'DATA'),
  ('tcl/msgs/es_ec.msg', '/usr/share/tcltk/tcl8.6/msgs/es_ec.msg', 'DATA'),
  ('tcl/Tix8.4/pref/TkWin.cs',
   '/usr/share/tcltk/tcl8.6/Tix8.4/pref/TkWin.cs',
   'DATA'),
  ('tcl/Tix8.4.3/bitmaps/minusarm.xbm',
   '/usr/share/tcltk/tcl8.6/Tix8.4.3/bitmaps/minusarm.xbm',
   'DATA'),
  ('tcl/msgs/es_bo.msg', '/usr/share/tcltk/tcl8.6/msgs/es_bo.msg', 'DATA'),
  ('tcl/Tix8.4.3/pref/TK.csc',
   '/usr/share/tcltk/tcl8.6/Tix8.4.3/pref/TK.csc',
   'DATA'),
  ('tk/images/logo64.gif', '/usr/share/tcltk/tk8.6/images/logo64.gif', 'DATA'),
  ('tcl/Tix8.4.3/HListDD.tcl',
   '/usr/share/tcltk/tcl8.6/Tix8.4.3/HListDD.tcl',
   'DATA'),
  ('tcl/Tix8.4/bitmaps/act_fold.xbm',
   '/usr/share/tcltk/tcl8.6/Tix8.4/bitmaps/act_fold.xbm',
   'DATA'),
  ('tcl/Tix8.4/pref/12Point.fs',
   '/usr/share/tcltk/tcl8.6/Tix8.4/pref/12Point.fs',
   'DATA'),
  ('tcl/encoding/iso8859-14.enc',
   '/usr/share/tcltk/tcl8.6/encoding/iso8859-14.enc',
   'DATA'),
  ('tcl/Tix8.4/pref/10Point.fs',
   '/usr/share/tcltk/tcl8.6/Tix8.4/pref/10Point.fs',
   'DATA'),
  ('tcl/Tix8.4.3/pref/TK.cs',
   '/usr/share/tcltk/tcl8.6/Tix8.4.3/pref/TK.cs',
   'DATA'),
  ('tcl/Tix8.4/pref/WmDefault.fs',
   '/usr/share/tcltk/tcl8.6/Tix8.4/pref/WmDefault.fs',
   'DATA'),
  ('tcl/msgs/es_ve.msg', '/usr/share/tcltk/tcl8.6/msgs/es_ve.msg', 'DATA'),
  ('tcl/Tix8.4/bitmaps/srcfile.xpm',
   '/usr/share/tcltk/tcl8.6/Tix8.4/bitmaps/srcfile.xpm',
   'DATA'),
  ('tk/ttk/scrollbar.tcl', '/usr/share/tcltk/tk8.6/ttk/scrollbar.tcl', 'DATA'),
  ('tcl/Tix8.4/BtnBox.tcl',
   '/usr/share/tcltk/tcl8.6/Tix8.4/BtnBox.tcl',
   'DATA'),
  ('tcl/Tix8.4.3/bitmaps/hourglas.xbm',
   '/usr/share/tcltk/tcl8.6/Tix8.4.3/bitmaps/hourglas.xbm',
   'DATA'),
  ('tk/images/tai-ku.gif', '/usr/share/tcltk/tk8.6/images/tai-ku.gif', 'DATA'),
  ('tk/ttk/spinbox.tcl', '/usr/share/tcltk/tk8.6/ttk/spinbox.tcl', 'DATA'),
  ('tcl/Tix8.4/bitmaps/textfile.gif',
   '/usr/share/tcltk/tcl8.6/Tix8.4/bitmaps/textfile.gif',
   'DATA'),
  ('tcl/Tix8.4/pref/TkWin.fsc',
   '/usr/share/tcltk/tcl8.6/Tix8.4/pref/TkWin.fsc',
   'DATA'),
  ('tcl/encoding/iso8859-6.enc',
   '/usr/share/tcltk/tcl8.6/encoding/iso8859-6.enc',
   'DATA'),
  ('tcl/Tix8.4/bitmaps/maximize.xbm',
   '/usr/share/tcltk/tcl8.6/Tix8.4/bitmaps/maximize.xbm',
   'DATA'),
  ('tcl/Tix8.4/bitmaps/drop.xbm',
   '/usr/share/tcltk/tcl8.6/Tix8.4/bitmaps/drop.xbm',
   'DATA'),
  ('tcl/encoding/macGreek.enc',
   '/usr/share/tcltk/tcl8.6/encoding/macGreek.enc',
   'DATA'),
  ('tcl/Tix8.4.3/bitmaps/ck_off.xbm',
   '/usr/share/tcltk/tcl8.6/Tix8.4.3/bitmaps/ck_off.xbm',
   'DATA'),
  ('tcl/msgs/kok_in.msg', '/usr/share/tcltk/tcl8.6/msgs/kok_in.msg', 'DATA'),
  ('tcl/Tix8.4.3/LabWidg.tcl',
   '/usr/share/tcltk/tcl8.6/Tix8.4.3/LabWidg.tcl',
   'DATA'),
  ('tcl/Tix8.4.3/bitmaps/act_fold.xpm',
   '/usr/share/tcltk/tcl8.6/Tix8.4.3/bitmaps/act_fold.xpm',
   'DATA'),
  ('tcl/Tix8.4.3/bitmaps/srcfile.gif',
   '/usr/share/tcltk/tcl8.6/Tix8.4.3/bitmaps/srcfile.gif',
   'DATA'),
  ('tcl/encoding/iso8859-10.enc',
   '/usr/share/tcltk/tcl8.6/encoding/iso8859-10.enc',
   'DATA'),
  ('tcl/msgs/eu_es.msg', '/usr/share/tcltk/tcl8.6/msgs/eu_es.msg', 'DATA'),
  ('tcl/Tix8.4.3/bitmaps/incr.xbm',
   '/usr/share/tcltk/tcl8.6/Tix8.4.3/bitmaps/incr.xbm',
   'DATA'),
  ('tcl/encoding/jis0201.enc',
   '/usr/share/tcltk/tcl8.6/encoding/jis0201.enc',
   'DATA'),
  ('tcl/Tix8.4/pref/Gray.csc',
   '/usr/share/tcltk/tcl8.6/Tix8.4/pref/Gray.csc',
   'DATA'),
  ('tcl/encoding/gb1988.enc',
   '/usr/share/tcltk/tcl8.6/encoding/gb1988.enc',
   'DATA'),
  ('tcl/Tix8.4.3/pref/10Point.fsc',
   '/usr/share/tcltk/tcl8.6/Tix8.4.3/pref/10Point.fsc',
   'DATA'),
  ('tk/msgs/sv.msg', '/usr/share/tcltk/tk8.6/msgs/sv.msg', 'DATA'),
  ('tcl/Tix8.4.3/bitmaps/mktransgif.tcl',
   '/usr/share/tcltk/tcl8.6/Tix8.4.3/bitmaps/mktransgif.tcl',
   'DATA'),
  ('tk/ttk/defaults.tcl', '/usr/share/tcltk/tk8.6/ttk/defaults.tcl', 'DATA'),
  ('tcl/Tix8.4.3/pref/14Point.fsc',
   '/usr/share/tcltk/tcl8.6/Tix8.4.3/pref/14Point.fsc',
   'DATA'),
  ('tcl/msgs/uk.msg', '/usr/share/tcltk/tcl8.6/msgs/uk.msg', 'DATA'),
  ('tcl/msgs/nl_be.msg', '/usr/share/tcltk/tcl8.6/msgs/nl_be.msg', 'DATA'),
  ('tcl/Tix8.4.3/LabFrame.tcl',
   '/usr/share/tcltk/tcl8.6/Tix8.4.3/LabFrame.tcl',
   'DATA'),
  ('tcl/Tix8.4.3/pref/Blue.csc',
   '/usr/share/tcltk/tcl8.6/Tix8.4.3/pref/Blue.csc',
   'DATA'),
  ('tcl/msgs/de_at.msg', '/usr/share/tcltk/tcl8.6/msgs/de_at.msg', 'DATA'),
  ('tk/msgs/de.msg', '/usr/share/tcltk/tk8.6/msgs/de.msg', 'DATA'),
  ('tk/scrlbar.tcl', '/usr/share/tcltk/tk8.6/scrlbar.tcl', 'DATA'),
  ('tcl/Tix8.4/Primitiv.tcl',
   '/usr/share/tcltk/tcl8.6/Tix8.4/Primitiv.tcl',
   'DATA'),
  ('tcl/encoding/macCentEuro.enc',
   '/usr/share/tcltk/tcl8.6/encoding/macCentEuro.enc',
   'DATA'),
  ('tk/msgs/eo.msg', '/usr/share/tcltk/tk8.6/msgs/eo.msg', 'DATA'),
  ('tcl/Tix8.4/bitmaps/resize1.xbm',
   '/usr/share/tcltk/tcl8.6/Tix8.4/bitmaps/resize1.xbm',
   'DATA'),
  ('tcl/Tix8.4.3/pref/Gray.cs',
   '/usr/share/tcltk/tcl8.6/Tix8.4.3/pref/Gray.cs',
   'DATA'),
  ('tcl/msgs/ru.msg', '/usr/share/tcltk/tcl8.6/msgs/ru.msg', 'DATA'),
  ('tcl/msgs/mk.msg', '/usr/share/tcltk/tcl8.6/msgs/mk.msg', 'DATA'),
  ('tcl/Tix8.4.3/bitmaps/plusarm.xbm',
   '/usr/share/tcltk/tcl8.6/Tix8.4.3/bitmaps/plusarm.xbm',
   'DATA'),
  ('tcl/encoding/euc-jp.enc',
   '/usr/share/tcltk/tcl8.6/encoding/euc-jp.enc',
   'DATA'),
  ('tcl/encoding/cp936.enc',
   '/usr/share/tcltk/tcl8.6/encoding/cp936.enc',
   'DATA'),
  ('tcl/Tix8.4/bitmaps/no_entry.xpm',
   '/usr/share/tcltk/tcl8.6/Tix8.4/bitmaps/no_entry.xpm',
   'DATA'),
  ('tk/images/pwrdLogo200.gif',
   '/usr/share/tcltk/tk8.6/images/pwrdLogo200.gif',
   'DATA'),
  ('tcl/Tix8.4/SText.tcl', '/usr/share/tcltk/tcl8.6/Tix8.4/SText.tcl', 'DATA'),
  ('tcl/tm.tcl', '/usr/share/tcltk/tcl8.6/tm.tcl', 'DATA'),
  ('tcl/msgs/gv_gb.msg', '/usr/share/tcltk/tcl8.6/msgs/gv_gb.msg', 'DATA'),
  ('tk/images/pwrdLogo175.gif',
   '/usr/share/tcltk/tk8.6/images/pwrdLogo175.gif',
   'DATA'),
  ('tcl/Tix8.4/bitmaps/system.xbm',
   '/usr/share/tcltk/tcl8.6/Tix8.4/bitmaps/system.xbm',
   'DATA'),
  ('tcl/encoding/cp1256.enc',
   '/usr/share/tcltk/tcl8.6/encoding/cp1256.enc',
   'DATA'),
  ('tcl/Tix8.4.3/pref/12Point.fsc',
   '/usr/share/tcltk/tcl8.6/Tix8.4.3/pref/12Point.fsc',
   'DATA'),
  ('tk/images/pwrdLogo100.gif',
   '/usr/share/tcltk/tk8.6/images/pwrdLogo100.gif',
   'DATA'),
  ('tcl/msgs/fr_be.msg', '/usr/share/tcltk/tcl8.6/msgs/fr_be.msg', 'DATA'),
  ('tcl/Tix8.4/Select.tcl',
   '/usr/share/tcltk/tcl8.6/Tix8.4/Select.tcl',
   'DATA'),
  ('tcl/msgs/es_mx.msg', '/usr/share/tcltk/tcl8.6/msgs/es_mx.msg', 'DATA'),
  ('tcl/Tix8.4.3/bitmaps/tick.xbm',
   '/usr/share/tcltk/tcl8.6/Tix8.4.3/bitmaps/tick.xbm',
   'DATA'),
  ('tk/ttk/clamTheme.tcl', '/usr/share/tcltk/tk8.6/ttk/clamTheme.tcl', 'DATA'),
  ('tcl/Tix8.4.3/DialogS.tcl',
   '/usr/share/tcltk/tcl8.6/Tix8.4.3/DialogS.tcl',
   'DATA'),
  ('tk/msgs/el.msg', '/usr/share/tcltk/tk8.6/msgs/el.msg', 'DATA'),
  ('tk/images/pwrdLogo150.gif',
   '/usr/share/tcltk/tk8.6/images/pwrdLogo150.gif',
   'DATA'),
  ('tcl/msgs/sq.msg', '/usr/share/tcltk/tcl8.6/msgs/sq.msg', 'DATA'),
  ('tcl/Tix8.4.3/pref/Old12Pt.fs',
   '/usr/share/tcltk/tcl8.6/Tix8.4.3/pref/Old12Pt.fs',
   'DATA'),
  ('tcl/opt0.4/optparse.tcl',
   '/usr/share/tcltk/tcl8.6/opt0.4/optparse.tcl',
   'DATA'),
  ('tcl/Tix8.4.3/pref/WmDefault.csc',
   '/usr/share/tcltk/tcl8.6/Tix8.4.3/pref/WmDefault.csc',
   'DATA'),
  ('tcl/Tix8.4/bitmaps/folder.xbm',
   '/usr/share/tcltk/tcl8.6/Tix8.4/bitmaps/folder.xbm',
   'DATA'),
  ('tcl/encoding/iso8859-9.enc',
   '/usr/share/tcltk/tcl8.6/encoding/iso8859-9.enc',
   'DATA'),
  ('tk/msgs/ru.msg', '/usr/share/tcltk/tk8.6/msgs/ru.msg', 'DATA'),
  ('tcl/msgs/gv.msg', '/usr/share/tcltk/tcl8.6/msgs/gv.msg', 'DATA'),
  ('tcl/Tix8.4.3/bitmaps/plus.xpm',
   '/usr/share/tcltk/tcl8.6/Tix8.4.3/bitmaps/plus.xpm',
   'DATA'),
  ('tcl/msgs/nn.msg', '/usr/share/tcltk/tcl8.6/msgs/nn.msg', 'DATA'),
  ('tcl/Tix8.4/VStack.tcl',
   '/usr/share/tcltk/tcl8.6/Tix8.4/VStack.tcl',
   'DATA'),
  ('tcl/Tix8.4/pref/WmDefault.txt',
   '/usr/share/tcltk/tcl8.6/Tix8.4/pref/WmDefault.txt',
   'DATA'),
  ('tcl/Tix8.4.3/FileCbx.tcl',
   '/usr/share/tcltk/tcl8.6/Tix8.4.3/FileCbx.tcl',
   'DATA'),
  ('tk/dialog.tcl', '/usr/share/tcltk/tk8.6/dialog.tcl', 'DATA'),
  ('tcl/msgs/kok.msg', '/usr/share/tcltk/tcl8.6/msgs/kok.msg', 'DATA'),
  ('tk/images/pwrdLogo.eps',
   '/usr/share/tcltk/tk8.6/images/pwrdLogo.eps',
   'DATA'),
  ('tcl/encoding/gb12345.enc',
   '/usr/share/tcltk/tcl8.6/encoding/gb12345.enc',
   'DATA'),
  ('tcl/Tix8.4.3/VStack.tcl',
   '/usr/share/tcltk/tcl8.6/Tix8.4.3/VStack.tcl',
   'DATA'),
  ('tcl/Tix8.4.3/bitmaps/minus.xpm',
   '/usr/share/tcltk/tcl8.6/Tix8.4.3/bitmaps/minus.xpm',
   'DATA'),
  ('tcl/Tix8.4.3/SHList.tcl',
   '/usr/share/tcltk/tcl8.6/Tix8.4.3/SHList.tcl',
   'DATA'),
  ('tcl/Tix8.4.3/NoteBook.tcl',
   '/usr/share/tcltk/tcl8.6/Tix8.4.3/NoteBook.tcl',
   'DATA'),
  ('tcl/Tix8.4/FloatEnt.tcl',
   '/usr/share/tcltk/tcl8.6/Tix8.4/FloatEnt.tcl',
   'DATA'),
  ('tcl/Tix8.4/ResizeH.tcl',
   '/usr/share/tcltk/tcl8.6/Tix8.4/ResizeH.tcl',
   'DATA'),
  ('tk/fontchooser.tcl', '/usr/share/tcltk/tk8.6/fontchooser.tcl', 'DATA'),
  ('tk/clrpick.tcl', '/usr/share/tcltk/tk8.6/clrpick.tcl', 'DATA'),
  ('tcl/encoding/koi8-u.enc',
   '/usr/share/tcltk/tcl8.6/encoding/koi8-u.enc',
   'DATA'),
  ('tcl/clock.tcl', '/usr/share/tcltk/tcl8.6/clock.tcl', 'DATA'),
  ('tcl/msgs/kl_gl.msg', '/usr/share/tcltk/tcl8.6/msgs/kl_gl.msg', 'DATA'),
  ('tcl/msgs/id_id.msg', '/usr/share/tcltk/tcl8.6/msgs/id_id.msg', 'DATA'),
  ('tcl/msgs/bn.msg', '/usr/share/tcltk/tcl8.6/msgs/bn.msg', 'DATA'),
  ('tcl/Tix8.4/HListDD.tcl',
   '/usr/share/tcltk/tcl8.6/Tix8.4/HListDD.tcl',
   'DATA'),
  ('tcl/msgs/el.msg', '/usr/share/tcltk/tcl8.6/msgs/el.msg', 'DATA'),
  ('tcl/Tix8.4/LabFrame.tcl',
   '/usr/share/tcltk/tcl8.6/Tix8.4/LabFrame.tcl',
   'DATA'),
  ('tk/msgs/it.msg', '/usr/share/tcltk/tk8.6/msgs/it.msg', 'DATA'),
  ('tcl/encoding/ebcdic.enc',
   '/usr/share/tcltk/tcl8.6/encoding/ebcdic.enc',
   'DATA'),
  ('tk/console.tcl', '/usr/share/tcltk/tk8.6/console.tcl', 'DATA'),
  ('tcl/msgs/ca.msg', '/usr/share/tcltk/tcl8.6/msgs/ca.msg', 'DATA'),
  ('tcl/Tix8.4/bitmaps/warning.gif',
   '/usr/share/tcltk/tcl8.6/Tix8.4/bitmaps/warning.gif',
   'DATA'),
  ('tcl/Tix8.4.3/bitmaps/no_entry.xpm',
   '/usr/share/tcltk/tcl8.6/Tix8.4.3/bitmaps/no_entry.xpm',
   'DATA'),
  ('tcl/msgs/de_be.msg', '/usr/share/tcltk/tcl8.6/msgs/de_be.msg', 'DATA'),
  ('tcl/Tix8.4/TList.tcl', '/usr/share/tcltk/tcl8.6/Tix8.4/TList.tcl', 'DATA'),
  ('tcl/tcl8/tcltest-2.5.1.tm',
   '/usr/share/tcltk/tcl8.6/tcl8/tcltest-2.5.1.tm',
   'DATA'),
  ('tcl/msgs/eu.msg', '/usr/share/tcltk/tcl8.6/msgs/eu.msg', 'DATA'),
  ('tcl/encoding/macUkraine.enc',
   '/usr/share/tcltk/tcl8.6/encoding/macUkraine.enc',
   'DATA'),
  ('tcl/msgs/zh_cn.msg', '/usr/share/tcltk/tcl8.6/msgs/zh_cn.msg', 'DATA'),
  ('tcl/Tix8.4/SimpDlg.tcl',
   '/usr/share/tcltk/tcl8.6/Tix8.4/SimpDlg.tcl',
   'DATA'),
  ('tcl/history.tcl', '/usr/share/tcltk/tcl8.6/history.tcl', 'DATA'),
  ('tcl/msgs/da.msg', '/usr/share/tcltk/tcl8.6/msgs/da.msg', 'DATA'),
  ('tcl/Tix8.4/pref/Old12Pt.fs',
   '/usr/share/tcltk/tcl8.6/Tix8.4/pref/Old12Pt.fs',
   'DATA'),
  ('tk/msgs/es.msg', '/usr/share/tcltk/tk8.6/msgs/es.msg', 'DATA'),
  ('tk/ttk/treeview.tcl', '/usr/share/tcltk/tk8.6/ttk/treeview.tcl', 'DATA'),
  ('importlib_metadata-1.5.0.egg-info/PKG-INFO',
   '/usr/lib/python3/dist-packages/importlib_metadata-1.5.0.egg-info/PKG-INFO',
   'DATA'),
  ('tcl/Tix8.4/bitmaps/act_fold.xpm',
   '/usr/share/tcltk/tcl8.6/Tix8.4/bitmaps/act_fold.xpm',
   'DATA'),
  ('tcl/Tix8.4/pref/Blue.csc',
   '/usr/share/tcltk/tcl8.6/Tix8.4/pref/Blue.csc',
   'DATA'),
  ('tk/msgs/nl.msg', '/usr/share/tcltk/tk8.6/msgs/nl.msg', 'DATA'),
  ('tcl/Tix8.4/LabEntry.tcl',
   '/usr/share/tcltk/tcl8.6/Tix8.4/LabEntry.tcl',
   'DATA'),
  ('tcl/Tix8.4.3/bitmaps/plus.gif',
   '/usr/share/tcltk/tcl8.6/Tix8.4.3/bitmaps/plus.gif',
   'DATA'),
  ('tcl/Tix8.4.3/pref/12Point.fs',
   '/usr/share/tcltk/tcl8.6/Tix8.4.3/pref/12Point.fs',
   'DATA'),
  ('tcl/Tix8.4/bitmaps/balarrow.xbm',
   '/usr/share/tcltk/tcl8.6/Tix8.4/bitmaps/balarrow.xbm',
   'DATA'),
  ('tcl/msgs/en_be.msg', '/usr/share/tcltk/tcl8.6/msgs/en_be.msg', 'DATA'),
  ('tcl/Tix8.4.3/ListNBk.tcl',
   '/usr/share/tcltk/tcl8.6/Tix8.4.3/ListNBk.tcl',
   'DATA'),
  ('tcl/Tix8.4/bitmaps/plus.gif',
   '/usr/share/tcltk/tcl8.6/Tix8.4/bitmaps/plus.gif',
   'DATA'),
  ('tcl/Tix8.4.3/pkgIndex.tcl',
   '/usr/share/tcltk/tcl8.6/Tix8.4.3/pkgIndex.tcl',
   'DATA'),
  ('tcl/msgs/tr.msg', '/usr/share/tcltk/tcl8.6/msgs/tr.msg', 'DATA'),
  ('tcl/safe.tcl', '/usr/share/tcltk/tcl8.6/safe.tcl', 'DATA'),
  ('tcl/msgs/fr_ca.msg', '/usr/share/tcltk/tcl8.6/msgs/fr_ca.msg', 'DATA'),
  ('tcl/encoding/symbol.enc',
   '/usr/share/tcltk/tcl8.6/encoding/symbol.enc',
   'DATA'),
  ('tcl/Tix8.4.3/MultView.tcl',
   '/usr/share/tcltk/tcl8.6/Tix8.4.3/MultView.tcl',
   'DATA'),
  ('tcl/Tix8.4/bitmaps/file.xpm',
   '/usr/share/tcltk/tcl8.6/Tix8.4/bitmaps/file.xpm',
   'DATA'),
  ('tcl/msgs/es.msg', '/usr/share/tcltk/tcl8.6/msgs/es.msg', 'DATA'),
  ('tcl/Tix8.4.3/bitmaps/folder.xbm',
   '/usr/share/tcltk/tcl8.6/Tix8.4.3/bitmaps/folder.xbm',
   'DATA'),
  ('tcl/msgs/es_pr.msg', '/usr/share/tcltk/tcl8.6/msgs/es_pr.msg', 'DATA'),
  ('tcl/encoding/euc-kr.enc',
   '/usr/share/tcltk/tcl8.6/encoding/euc-kr.enc',
   'DATA'),
  ('tcl/msgs/hu.msg', '/usr/share/tcltk/tcl8.6/msgs/hu.msg', 'DATA'),
  ('tcl/Tix8.4.3/pref/TK.fsc',
   '/usr/share/tcltk/tcl8.6/Tix8.4.3/pref/TK.fsc',
   'DATA'),
  ('tcl/tcl8/msgcat-1.6.1.tm',
   '/usr/share/tcltk/tcl8.6/tcl8/msgcat-1.6.1.tm',
   'DATA'),
  ('tcl/msgs/zh_hk.msg', '/usr/share/tcltk/tcl8.6/msgs/zh_hk.msg', 'DATA'),
  ('tcl/Tix8.4.3/bitmaps/plusarm.xpm',
   '/usr/share/tcltk/tcl8.6/Tix8.4.3/bitmaps/plusarm.xpm',
   'DATA'),
  ('tcl/Tix8.4/bitmaps/openfold.gif',
   '/usr/share/tcltk/tcl8.6/Tix8.4/bitmaps/openfold.gif',
   'DATA'),
  ('tk/scale.tcl', '/usr/share/tcltk/tk8.6/scale.tcl', 'DATA'),
  ('tcl/Tix8.4/Utils.tcl', '/usr/share/tcltk/tcl8.6/Tix8.4/Utils.tcl', 'DATA'),
  ('tcl/Tix8.4/DtlList.tcl',
   '/usr/share/tcltk/tcl8.6/Tix8.4/DtlList.tcl',
   'DATA'),
  ('tcl/encoding/iso8859-15.enc',
   '/usr/share/tcltk/tcl8.6/encoding/iso8859-15.enc',
   'DATA'),
  ('tcl/msgs/en_ie.msg', '/usr/share/tcltk/tcl8.6/msgs/en_ie.msg', 'DATA'),
  ('tcl/Tix8.4/pref/Blue.cs',
   '/usr/share/tcltk/tcl8.6/Tix8.4/pref/Blue.cs',
   'DATA'),
  ('tcl/msgs/nl.msg', '/usr/share/tcltk/tcl8.6/msgs/nl.msg', 'DATA'),
  ('tcl/Tix8.4.3/pref/TkWin.fs',
   '/usr/share/tcltk/tcl8.6/Tix8.4.3/pref/TkWin.fs',
   'DATA'),
  ('tcl/msgs/en_sg.msg', '/usr/share/tcltk/tcl8.6/msgs/en_sg.msg', 'DATA'),
  ('tcl/Tix8.4/SListBox.tcl',
   '/usr/share/tcltk/tcl8.6/Tix8.4/SListBox.tcl',
   'DATA'),
  ('tcl/msgs/ar_sy.msg', '/usr/share/tcltk/tcl8.6/msgs/ar_sy.msg', 'DATA'),
  ('tcl/msgs/id.msg', '/usr/share/tcltk/tcl8.6/msgs/id.msg', 'DATA'),
  ('tcl/msgs/ko.msg', '/usr/share/tcltk/tcl8.6/msgs/ko.msg', 'DATA'),
  ('tcl/Tix8.4/fs.tcl', '/usr/share/tcltk/tcl8.6/Tix8.4/fs.tcl', 'DATA'),
  ('tcl/encoding/cp1258.enc',
   '/usr/share/tcltk/tcl8.6/encoding/cp1258.enc',
   'DATA'),
  ('tcl/encoding/macDingbats.enc',
   '/usr/share/tcltk/tcl8.6/encoding/macDingbats.enc',
   'DATA'),
  ('tk/msgbox.tcl', '/usr/share/tcltk/tk8.6/msgbox.tcl', 'DATA'),
  ('tk/ttk/utils.tcl', '/usr/share/tcltk/tk8.6/ttk/utils.tcl', 'DATA'),
  ('tcl/Tix8.4.3/Tix.tcl', '/usr/share/tcltk/tcl8.6/Tix8.4.3/Tix.tcl', 'DATA'),
  ('tcl/Tix8.4/pref/TK.fsc',
   '/usr/share/tcltk/tcl8.6/Tix8.4/pref/TK.fsc',
   'DATA'),
  ('tcl/Tix8.4/FileBox.tcl',
   '/usr/share/tcltk/tcl8.6/Tix8.4/FileBox.tcl',
   'DATA'),
  ('tcl/Tix8.4/pref/TK.cs',
   '/usr/share/tcltk/tcl8.6/Tix8.4/pref/TK.cs',
   'DATA'),
  ('tcl/opt0.4/pkgIndex.tcl',
   '/usr/share/tcltk/tcl8.6/opt0.4/pkgIndex.tcl',
   'DATA'),
  ('tk/button.tcl', '/usr/share/tcltk/tk8.6/button.tcl', 'DATA'),
  ('tk/comdlg.tcl', '/usr/share/tcltk/tk8.6/comdlg.tcl', 'DATA'),
  ('tcl/Tix8.4.3/bitmaps/minusarm.gif',
   '/usr/share/tcltk/tcl8.6/Tix8.4.3/bitmaps/minusarm.gif',
   'DATA'),
  ('tcl/Tix8.4/Event.tcl', '/usr/share/tcltk/tcl8.6/Tix8.4/Event.tcl', 'DATA'),
  ('tcl/msgs/sv.msg', '/usr/share/tcltk/tcl8.6/msgs/sv.msg', 'DATA'),
  ('importlib_metadata-1.5.0.egg-info/dependency_links.txt',
   '/usr/lib/python3/dist-packages/importlib_metadata-1.5.0.egg-info/dependency_links.txt',
   'DATA'),
  ('tk/xmfbox.tcl', '/usr/share/tcltk/tk8.6/xmfbox.tcl', 'DATA'),
  ('tcl/msgs/bg.msg', '/usr/share/tcltk/tcl8.6/msgs/bg.msg', 'DATA'),
  ('tcl/Tix8.4/IconView.tcl',
   '/usr/share/tcltk/tcl8.6/Tix8.4/IconView.tcl',
   'DATA'),
  ('tcl/encoding/cp1253.enc',
   '/usr/share/tcltk/tcl8.6/encoding/cp1253.enc',
   'DATA'),
  ('tcl/encoding/iso8859-4.enc',
   '/usr/share/tcltk/tcl8.6/encoding/iso8859-4.enc',
   'DATA'),
  ('tcl/msgs/it.msg', '/usr/share/tcltk/tcl8.6/msgs/it.msg', 'DATA'),
  ('tcl/encoding/macRoman.enc',
   '/usr/share/tcltk/tcl8.6/encoding/macRoman.enc',
   'DATA'),
  ('tcl/Tix8.4.3/DtlList.tcl',
   '/usr/share/tcltk/tcl8.6/Tix8.4.3/DtlList.tcl',
   'DATA'),
  ('tcl/Tix8.4/pref/WmDefault.tcl',
   '/usr/share/tcltk/tcl8.6/Tix8.4/pref/WmDefault.tcl',
   'DATA'),
  ('tcl/Tix8.4/Variable.tcl',
   '/usr/share/tcltk/tcl8.6/Tix8.4/Variable.tcl',
   'DATA'),
  ('tk/tkAppInit.c', '/usr/share/tcltk/tk8.6/tkAppInit.c', 'DATA'),
  ('tcl/msgs/ms.msg', '/usr/share/tcltk/tcl8.6/msgs/ms.msg', 'DATA'),
  ('tcl/Tix8.4/bitmaps/textfile.xbm',
   '/usr/share/tcltk/tcl8.6/Tix8.4/bitmaps/textfile.xbm',
   'DATA'),
  ('tcl/Tix8.4/OptMenu.tcl',
   '/usr/share/tcltk/tcl8.6/Tix8.4/OptMenu.tcl',
   'DATA'),
  ('tcl/parray.tcl', '/usr/share/tcltk/tcl8.6/parray.tcl', 'DATA'),
  ('tcl/Tix8.4/bitmaps/act_fold.gif',
   '/usr/share/tcltk/tcl8.6/Tix8.4/bitmaps/act_fold.gif',
   'DATA'),
  ('tcl/msgs/zh_sg.msg', '/usr/share/tcltk/tcl8.6/msgs/zh_sg.msg', 'DATA'),
  ('tcl/tcl8/platform/shell-1.1.4.tm',
   '/usr/share/tcltk/tcl8.6/tcl8/platform/shell-1.1.4.tm',
   'DATA'),
  ('tcl/Tix8.4/NoteBook.tcl',
   '/usr/share/tcltk/tcl8.6/Tix8.4/NoteBook.tcl',
   'DATA'),
  ('tcl/Tix8.4.3/bitmaps/srcfile.xpm',
   '/usr/share/tcltk/tcl8.6/Tix8.4.3/bitmaps/srcfile.xpm',
   'DATA'),
  ('tcl/Tix8.4/bitmaps/file.gif',
   '/usr/share/tcltk/tcl8.6/Tix8.4/bitmaps/file.gif',
   'DATA'),
  ('tcl/http1.0/http.tcl', '/usr/share/tcltk/tcl8.6/http1.0/http.tcl', 'DATA'),
  ('tcl/msgs/hi_in.msg', '/usr/share/tcltk/tcl8.6/msgs/hi_in.msg', 'DATA'),
  ('tcl/Tix8.4.3/pref/WmDefault.txt',
   '/usr/share/tcltk/tcl8.6/Tix8.4.3/pref/WmDefault.txt',
   'DATA'),
  ('tcl/auto.tcl', '/usr/share/tcltk/tcl8.6/auto.tcl', 'DATA'),
  ('tcl/Tix8.4.3/bitmaps/file.gif',
   '/usr/share/tcltk/tcl8.6/Tix8.4.3/bitmaps/file.gif',
   'DATA'),
  ('tcl/msgs/en_nz.msg', '/usr/share/tcltk/tcl8.6/msgs/en_nz.msg', 'DATA'),
  ('tcl/Tix8.4.3/bitmaps/act_fold.xbm',
   '/usr/share/tcltk/tcl8.6/Tix8.4.3/bitmaps/act_fold.xbm',
   'DATA'),
  ('tcl/Tix8.4.3/pref/SGIGray.csc',
   '/usr/share/tcltk/tcl8.6/Tix8.4.3/pref/SGIGray.csc',
   'DATA'),
  ('tcl/msgs/fr.msg', '/usr/share/tcltk/tcl8.6/msgs/fr.msg', 'DATA'),
  ('tcl/msgs/es_sv.msg', '/usr/share/tcltk/tcl8.6/msgs/es_sv.msg', 'DATA'),
  ('tcl/Tix8.4.3/Primitiv.tcl',
   '/usr/share/tcltk/tcl8.6/Tix8.4.3/Primitiv.tcl',
   'DATA'),
  ('tcl/Tix8.4/StdShell.tcl',
   '/usr/share/tcltk/tcl8.6/Tix8.4/StdShell.tcl',
   'DATA'),
  ('tk/images/logoLarge.gif',
   '/usr/share/tcltk/tk8.6/images/logoLarge.gif',
   'DATA'),
  ('tcl/encoding/cp862.enc',
   '/usr/share/tcltk/tcl8.6/encoding/cp862.enc',
   'DATA'),
  ('tcl/Tix8.4/Meter.tcl', '/usr/share/tcltk/tcl8.6/Tix8.4/Meter.tcl', 'DATA'),
  ('tk/tk.tcl', '/usr/share/tcltk/tk8.6/tk.tcl', 'DATA'),
  ('tcl/Tix8.4.3/bitmaps/no_entry.gif',
   '/usr/share/tcltk/tcl8.6/Tix8.4.3/bitmaps/no_entry.gif',
   'DATA'),
  ('tcl/Tix8.4.3/StatBar.tcl',
   '/usr/share/tcltk/tcl8.6/Tix8.4.3/StatBar.tcl',
   'DATA'),
  ('tcl/msgs/es_ni.msg', '/usr/share/tcltk/tcl8.6/msgs/es_ni.msg', 'DATA'),
  ('tcl/Tix8.4.3/TList.tcl',
   '/usr/share/tcltk/tcl8.6/Tix8.4.3/TList.tcl',
   'DATA'),
  ('tk/images/README', '/usr/share/tcltk/tk8.6/images/README', 'DATA'),
  ('tcl/Tix8.4/Grid.tcl', '/usr/share/tcltk/tcl8.6/Tix8.4/Grid.tcl', 'DATA'),
  ('tk/unsupported.tcl', '/usr/share/tcltk/tk8.6/unsupported.tcl', 'DATA'),
  ('tcl/encoding/koi8-r.enc',
   '/usr/share/tcltk/tcl8.6/encoding/koi8-r.enc',
   'DATA'),
  ('tcl/Tix8.4.3/Event.tcl',
   '/usr/share/tcltk/tcl8.6/Tix8.4.3/Event.tcl',
   'DATA'),
  ('tk/ttk/winTheme.tcl', '/usr/share/tcltk/tk8.6/ttk/winTheme.tcl', 'DATA'),
  ('tcl/Tix8.4/bitmaps/minusarm.gif',
   '/usr/share/tcltk/tcl8.6/Tix8.4/bitmaps/minusarm.gif',
   'DATA'),
  ('tcl/Tix8.4/FileDlg.tcl',
   '/usr/share/tcltk/tcl8.6/Tix8.4/FileDlg.tcl',
   'DATA'),
  ('tcl/msgs/gl_es.msg', '/usr/share/tcltk/tcl8.6/msgs/gl_es.msg', 'DATA'),
  ('tcl/Tix8.4/VTree.tcl', '/usr/share/tcltk/tcl8.6/Tix8.4/VTree.tcl', 'DATA'),
  ('tcl/Tix8.4/bitmaps/info.xpm',
   '/usr/share/tcltk/tcl8.6/Tix8.4/bitmaps/info.xpm',
   'DATA'),
  ('tcl/encoding/cp1257.enc',
   '/usr/share/tcltk/tcl8.6/encoding/cp1257.enc',
   'DATA'),
  ('tcl/encoding/shiftjis.enc',
   '/usr/share/tcltk/tcl8.6/encoding/shiftjis.enc',
   'DATA'),
  ('tcl/encoding/cp855.enc',
   '/usr/share/tcltk/tcl8.6/encoding/cp855.enc',
   'DATA'),
  ('tcl/Tix8.4.3/bitmaps/ck_on.xbm',
   '/usr/share/tcltk/tcl8.6/Tix8.4.3/bitmaps/ck_on.xbm',
   'DATA'),
  ('tk/listbox.tcl', '/usr/share/tcltk/tk8.6/listbox.tcl', 'DATA'),
  ('tcl/encoding/ksc5601.enc',
   '/usr/share/tcltk/tcl8.6/encoding/ksc5601.enc',
   'DATA'),
  ('tcl/Tix8.4/bitmaps/incr.xbm',
   '/usr/share/tcltk/tcl8.6/Tix8.4/bitmaps/incr.xbm',
   'DATA'),
  ('tcl/tcl8/http-2.9.1.tm',
   '/usr/share/tcltk/tcl8.6/tcl8/http-2.9.1.tm',
   'DATA'),
  ('tcl/Tix8.4/pref/14Point.fs',
   '/usr/share/tcltk/tcl8.6/Tix8.4/pref/14Point.fs',
   'DATA'),
  ('tcl/Tix8.4/DefSchm.tcl',
   '/usr/share/tcltk/tcl8.6/Tix8.4/DefSchm.tcl',
   'DATA'),
  ('tcl/Tix8.4/HList.tcl', '/usr/share/tcltk/tcl8.6/Tix8.4/HList.tcl', 'DATA'),
  ('tcl/Tix8.4.3/bitmaps/minus.gif',
   '/usr/share/tcltk/tcl8.6/Tix8.4.3/bitmaps/minus.gif',
   'DATA'),
  ('tcl/Tix8.4/pref/pkgIndex.tcl',
   '/usr/share/tcltk/tcl8.6/Tix8.4/pref/pkgIndex.tcl',
   'DATA'),
  ('tcl/encoding/cp1250.enc',
   '/usr/share/tcltk/tcl8.6/encoding/cp1250.enc',
   'DATA'),
  ('tcl/msgs/zh_tw.msg', '/usr/share/tcltk/tcl8.6/msgs/zh_tw.msg', 'DATA'),
  ('tcl/encoding/iso2022.enc',
   '/usr/share/tcltk/tcl8.6/encoding/iso2022.enc',
   'DATA'),
  ('tcl/Tix8.4/pref/12Point.fsc',
   '/usr/share/tcltk/tcl8.6/Tix8.4/pref/12Point.fsc',
   'DATA'),
  ('tk/panedwindow.tcl', '/usr/share/tcltk/tk8.6/panedwindow.tcl', 'DATA'),
  ('tk/ttk/fonts.tcl', '/usr/share/tcltk/tk8.6/ttk/fonts.tcl', 'DATA'),
  ('tcl/Tix8.4.3/Meter.tcl',
   '/usr/share/tcltk/tcl8.6/Tix8.4.3/Meter.tcl',
   'DATA'),
  ('tcl/encoding/euc-cn.enc',
   '/usr/share/tcltk/tcl8.6/encoding/euc-cn.enc',
   'DATA'),
  ('tcl/Tix8.4.3/bitmaps/system.xbm',
   '/usr/share/tcltk/tcl8.6/Tix8.4.3/bitmaps/system.xbm',
   'DATA'),
  ('tcl/Tix8.4/bitmaps/openfold.xpm',
   '/usr/share/tcltk/tcl8.6/Tix8.4/bitmaps/openfold.xpm',
   'DATA'),
  ('tcl/Tix8.4.3/Select.tcl',
   '/usr/share/tcltk/tcl8.6/Tix8.4.3/Select.tcl',
   'DATA'),
  ('tcl/Tix8.4.3/pref/Gray.csc',
   '/usr/share/tcltk/tcl8.6/Tix8.4.3/pref/Gray.csc',
   'DATA'),
  ('tcl/encoding/cp1251.enc',
   '/usr/share/tcltk/tcl8.6/encoding/cp1251.enc',
   'DATA'),
  ('tcl/msgs/es_co.msg', '/usr/share/tcltk/tcl8.6/msgs/es_co.msg', 'DATA'),
  ('tk/ttk/xpTheme.tcl', '/usr/share/tcltk/tk8.6/ttk/xpTheme.tcl', 'DATA'),
  ('tcl/msgs/hi.msg', '/usr/share/tcltk/tcl8.6/msgs/hi.msg', 'DATA'),
  ('tcl/encoding/iso2022-jp.enc',
   '/usr/share/tcltk/tcl8.6/encoding/iso2022-jp.enc',
   'DATA'),
  ('tcl/encoding/cp932.enc',
   '/usr/share/tcltk/tcl8.6/encoding/cp932.enc',
   'DATA'),
  ('tcl/Tix8.4/ComboBox.tcl',
   '/usr/share/tcltk/tcl8.6/Tix8.4/ComboBox.tcl',
   'DATA'),
  ('tcl/msgs/pl.msg', '/usr/share/tcltk/tcl8.6/msgs/pl.msg', 'DATA'),
  ('tcl/encoding/iso8859-8.enc',
   '/usr/share/tcltk/tcl8.6/encoding/iso8859-8.enc',
   'DATA'),
  ('tcl/msgs/es_ar.msg', '/usr/share/tcltk/tcl8.6/msgs/es_ar.msg', 'DATA'),
  ('tcl/Tix8.4.3/CObjView.tcl',
   '/usr/share/tcltk/tcl8.6/Tix8.4.3/CObjView.tcl',
   'DATA'),
  ('tk/tearoff.tcl', '/usr/share/tcltk/tk8.6/tearoff.tcl', 'DATA'),
  ('tcl/encoding/cp1254.enc',
   '/usr/share/tcltk/tcl8.6/encoding/cp1254.enc',
   'DATA'),
  ('tcl/init.tcl', '/usr/share/tcltk/tcl8.6/init.tcl', 'DATA'),
  ('tcl/Tix8.4/bitmaps/hourglas.mask',
   '/usr/share/tcltk/tcl8.6/Tix8.4/bitmaps/hourglas.mask',
   'DATA'),
  ('tcl/msgs/ar_lb.msg', '/usr/share/tcltk/tcl8.6/msgs/ar_lb.msg', 'DATA'),
  ('tcl/Tix8.4/StdBBox.tcl',
   '/usr/share/tcltk/tcl8.6/Tix8.4/StdBBox.tcl',
   'DATA'),
  ('tcl/Tix8.4/bitmaps/resize2.xbm',
   '/usr/share/tcltk/tcl8.6/Tix8.4/bitmaps/resize2.xbm',
   'DATA'),
  ('tcl/Tix8.4.3/Compat.tcl',
   '/usr/share/tcltk/tcl8.6/Tix8.4.3/Compat.tcl',
   'DATA'),
  ('tcl/msgs/th.msg', '/usr/share/tcltk/tcl8.6/msgs/th.msg', 'DATA'),
  ('tk/ttk/scale.tcl', '/usr/share/tcltk/tk8.6/ttk/scale.tcl', 'DATA'),
  ('tcl/msgs/he.msg', '/usr/share/tcltk/tcl8.6/msgs/he.msg', 'DATA'),
  ('tk/images/logo.eps', '/usr/share/tcltk/tk8.6/images/logo.eps', 'DATA'),
  ('tcl/Tix8.4/WInfo.tcl', '/usr/share/tcltk/tcl8.6/Tix8.4/WInfo.tcl', 'DATA'),
  ('tcl/encoding/cp869.enc',
   '/usr/share/tcltk/tcl8.6/encoding/cp869.enc',
   'DATA'),
  ('tcl/msgs/nb.msg', '/usr/share/tcltk/tcl8.6/msgs/nb.msg', 'DATA'),
  ('tcl/Tix8.4.3/bitmaps/resize1.xbm',
   '/usr/share/tcltk/tcl8.6/Tix8.4.3/bitmaps/resize1.xbm',
   'DATA'),
  ('tcl/Tix8.4/pref/Gray.cs',
   '/usr/share/tcltk/tcl8.6/Tix8.4/pref/Gray.cs',
   'DATA'),
  ('tcl/Tix8.4/pref/TkWin.fs',
   '/usr/share/tcltk/tcl8.6/Tix8.4/pref/TkWin.fs',
   'DATA'),
  ('tcl/Tix8.4/bitmaps/no_entry.gif',
   '/usr/share/tcltk/tcl8.6/Tix8.4/bitmaps/no_entry.gif',
   'DATA'),
  ('tcl/Tix8.4/bitmaps/textfile.xpm',
   '/usr/share/tcltk/tcl8.6/Tix8.4/bitmaps/textfile.xpm',
   'DATA'),
  ('tcl/msgs/et.msg', '/usr/share/tcltk/tcl8.6/msgs/et.msg', 'DATA'),
  ('tcl/Tix8.4.3/DragDrop.tcl',
   '/usr/share/tcltk/tcl8.6/Tix8.4.3/DragDrop.tcl',
   'DATA'),
  ('tcl/Tix8.4.3/bitmaps/file.xbm',
   '/usr/share/tcltk/tcl8.6/Tix8.4.3/bitmaps/file.xbm',
   'DATA'),
  ('tcl/Tix8.4/DirList.tcl',
   '/usr/share/tcltk/tcl8.6/Tix8.4/DirList.tcl',
   'DATA'),
  ('tcl/msgs/de.msg', '/usr/share/tcltk/tcl8.6/msgs/de.msg', 'DATA'),
  ('tcl/Tix8.4.3/pref/Blue.cs',
   '/usr/share/tcltk/tcl8.6/Tix8.4.3/pref/Blue.cs',
   'DATA'),
  ('tcl/Tix8.4.3/pref/TK.fs',
   '/usr/share/tcltk/tcl8.6/Tix8.4.3/pref/TK.fs',
   'DATA'),
  ('tcl/msgs/es_uy.msg', '/usr/share/tcltk/tcl8.6/msgs/es_uy.msg', 'DATA'),
  ('tcl/Tix8.4/pref/TK.fs',
   '/usr/share/tcltk/tcl8.6/Tix8.4/pref/TK.fs',
   'DATA'),
  ('tcl/Tix8.4/bitmaps/mktransgif.tcl',
   '/usr/share/tcltk/tcl8.6/Tix8.4/bitmaps/mktransgif.tcl',
   'DATA'),
  ('tcl/Tix8.4.3/fs.tcl', '/usr/share/tcltk/tcl8.6/Tix8.4.3/fs.tcl', 'DATA'),
  ('tcl/Tix8.4.3/bitmaps/openfold.xbm',
   '/usr/share/tcltk/tcl8.6/Tix8.4.3/bitmaps/openfold.xbm',
   'DATA'),
  ('tcl/msgs/en_bw.msg', '/usr/share/tcltk/tcl8.6/msgs/en_bw.msg', 'DATA'),
  ('tcl/Tix8.4.3/bitmaps/harddisk.xbm',
   '/usr/share/tcltk/tcl8.6/Tix8.4.3/bitmaps/harddisk.xbm',
   'DATA'),
  ('tcl/Tix8.4.3/bitmaps/cross.xbm',
   '/usr/share/tcltk/tcl8.6/Tix8.4.3/bitmaps/cross.xbm',
   'DATA'),
  ('tcl/Tix8.4/bitmaps/minus.gif',
   '/usr/share/tcltk/tcl8.6/Tix8.4/bitmaps/minus.gif',
   'DATA'),
  ('tcl/Tix8.4/PanedWin.tcl',
   '/usr/share/tcltk/tcl8.6/Tix8.4/PanedWin.tcl',
   'DATA'),
  ('tcl/msgs/en_hk.msg', '/usr/share/tcltk/tcl8.6/msgs/en_hk.msg', 'DATA'),
  ('tcl/Tix8.4/bitmaps/hourglas.xbm',
   '/usr/share/tcltk/tcl8.6/Tix8.4/bitmaps/hourglas.xbm',
   'DATA'),
  ('tcl/Tix8.4.3/bitmaps/folder.gif',
   '/usr/share/tcltk/tcl8.6/Tix8.4.3/bitmaps/folder.gif',
   'DATA'),
  ('tcl/Tix8.4.3/bitmaps/resize2.xbm',
   '/usr/share/tcltk/tcl8.6/Tix8.4.3/bitmaps/resize2.xbm',
   'DATA'),
  ('tcl/Tix8.4/pref/WmDefault.cs',
   '/usr/share/tcltk/tcl8.6/Tix8.4/pref/WmDefault.cs',
   'DATA'),
  ('importlib_metadata-1.5.0.egg-info/top_level.txt',
   '/usr/lib/python3/dist-packages/importlib_metadata-1.5.0.egg-info/top_level.txt',
   'DATA'),
  ('tcl/encoding/gb2312.enc',
   '/usr/share/tcltk/tcl8.6/encoding/gb2312.enc',
   'DATA'),
  ('tcl/Tix8.4/bitmaps/folder.xpm',
   '/usr/share/tcltk/tcl8.6/Tix8.4/bitmaps/folder.xpm',
   'DATA'),
  ('tcl/Tix8.4.3/pref/10Point.fs',
   '/usr/share/tcltk/tcl8.6/Tix8.4.3/pref/10Point.fs',
   'DATA'),
  ('tcl/Tix8.4/pkgIndex.tcl',
   '/usr/share/tcltk/tcl8.6/Tix8.4/pkgIndex.tcl',
   'DATA'),
  ('tcl/Tix8.4.3/bitmaps/textfile.xpm',
   '/usr/share/tcltk/tcl8.6/Tix8.4.3/bitmaps/textfile.xpm',
   'DATA'),
  ('tcl/msgs/mt.msg', '/usr/share/tcltk/tcl8.6/msgs/mt.msg', 'DATA'),
  ('tcl/msgs/pt.msg', '/usr/share/tcltk/tcl8.6/msgs/pt.msg', 'DATA'),
  ('tcl/encoding/macTurkish.enc',
   '/usr/share/tcltk/tcl8.6/encoding/macTurkish.enc',
   'DATA'),
  ('tcl/Tix8.4.3/SText.tcl',
   '/usr/share/tcltk/tcl8.6/Tix8.4.3/SText.tcl',
   'DATA'),
  ('tcl/Tix8.4/EFileDlg.tcl',
   '/usr/share/tcltk/tcl8.6/Tix8.4/EFileDlg.tcl',
   'DATA'),
  ('tcl/msgs/en_zw.msg', '/usr/share/tcltk/tcl8.6/msgs/en_zw.msg', 'DATA'),
  ('tcl/msgs/cs.msg', '/usr/share/tcltk/tcl8.6/msgs/cs.msg', 'DATA'),
  ('tcl/encoding/jis0212.enc',
   '/usr/share/tcltk/tcl8.6/encoding/jis0212.enc',
   'DATA'),
  ('tk/icons.tcl', '/usr/share/tcltk/tk8.6/icons.tcl', 'DATA'),
  ('tcl/msgs/be.msg', '/usr/share/tcltk/tcl8.6/msgs/be.msg', 'DATA'),
  ('tcl/Tix8.4/EFileBox.tcl',
   '/usr/share/tcltk/tcl8.6/Tix8.4/EFileBox.tcl',
   'DATA'),
  ('tcl/msgs/fa_in.msg', '/usr/share/tcltk/tcl8.6/msgs/fa_in.msg', 'DATA'),
  ('tcl/Tix8.4.3/bitmaps/network.xbm',
   '/usr/share/tcltk/tcl8.6/Tix8.4.3/bitmaps/network.xbm',
   'DATA'),
  ('tk/ttk/entry.tcl', '/usr/share/tcltk/tk8.6/ttk/entry.tcl', 'DATA'),
  ('tcl/msgs/ms_my.msg', '/usr/share/tcltk/tcl8.6/msgs/ms_my.msg', 'DATA'),
  ('tcl/encoding/cp874.enc',
   '/usr/share/tcltk/tcl8.6/encoding/cp874.enc',
   'DATA'),
  ('tcl/Tix8.4.3/DefSchm.tcl',
   '/usr/share/tcltk/tcl8.6/Tix8.4.3/DefSchm.tcl',
   'DATA'),
  ('tcl/Tix8.4.3/bitmaps/folder.xpm',
   '/usr/share/tcltk/tcl8.6/Tix8.4.3/bitmaps/folder.xpm',
   'DATA'),
  ('tcl/Tix8.4.3/pref/WmDefault.cs',
   '/usr/share/tcltk/tcl8.6/Tix8.4.3/pref/WmDefault.cs',
   'DATA'),
  ('tcl/msgs/mr_in.msg', '/usr/share/tcltk/tcl8.6/msgs/mr_in.msg', 'DATA'),
  ('tk/msgs/cs.msg', '/usr/share/tcltk/tk8.6/msgs/cs.msg', 'DATA'),
  ('tcl/msgs/lv.msg', '/usr/share/tcltk/tcl8.6/msgs/lv.msg', 'DATA'),
  ('tcl/Tix8.4/bitmaps/ck_on.xbm',
   '/usr/share/tcltk/tcl8.6/Tix8.4/bitmaps/ck_on.xbm',
   'DATA'),
  ('tcl/encoding/macRomania.enc',
   '/usr/share/tcltk/tcl8.6/encoding/macRomania.enc',
   'DATA'),
  ('tk/ttk/aquaTheme.tcl', '/usr/share/tcltk/tk8.6/ttk/aquaTheme.tcl', 'DATA'),
  ('tcl/Tix8.4/StatBar.tcl',
   '/usr/share/tcltk/tcl8.6/Tix8.4/StatBar.tcl',
   'DATA'),
  ('tk/obsolete.tcl', '/usr/share/tcltk/tk8.6/obsolete.tcl', 'DATA'),
  ('tk/tclIndex', '/usr/share/tcltk/tk8.6/tclIndex', 'DATA'),
  ('tcl/Tix8.4/VResize.tcl',
   '/usr/share/tcltk/tcl8.6/Tix8.4/VResize.tcl',
   'DATA'),
  ('tcl/encoding/cp852.enc',
   '/usr/share/tcltk/tcl8.6/encoding/cp852.enc',
   'DATA'),
  ('tcl/package.tcl', '/usr/share/tcltk/tcl8.6/package.tcl', 'DATA'),
  ('tcl/Tix8.4.3/EFileBox.tcl',
   '/usr/share/tcltk/tcl8.6/Tix8.4.3/EFileBox.tcl',
   'DATA'),
  ('tcl/msgs/es_hn.msg', '/usr/share/tcltk/tcl8.6/msgs/es_hn.msg', 'DATA'),
  ('tcl/msgs/af.msg', '/usr/share/tcltk/tcl8.6/msgs/af.msg', 'DATA'),
  ('tcl/Tix8.4.3/DirBox.tcl',
   '/usr/share/tcltk/tcl8.6/Tix8.4.3/DirBox.tcl',
   'DATA'),
  ('tcl/Tix8.4.3/IconView.tcl',
   '/usr/share/tcltk/tcl8.6/Tix8.4.3/IconView.tcl',
   'DATA'),
  ('tk/msgs/hu.msg', '/usr/share/tcltk/tk8.6/msgs/hu.msg', 'DATA'),
  ('tcl/Tix8.4.3/README.txt',
   '/usr/share/tcltk/tcl8.6/Tix8.4.3/README.txt',
   'DATA'),
  ('tcl/Tix8.4.3/bitmaps/textfile.xbm',
   '/usr/share/tcltk/tcl8.6/Tix8.4.3/bitmaps/textfile.xbm',
   'DATA'),
  ('tcl/encoding/cp864.enc',
   '/usr/share/tcltk/tcl8.6/encoding/cp864.enc',
   'DATA'),
  ('tcl/Tix8.4.3/Tree.tcl',
   '/usr/share/tcltk/tcl8.6/Tix8.4.3/Tree.tcl',
   'DATA'),
  ('tcl/encoding/cp857.enc',
   '/usr/share/tcltk/tcl8.6/encoding/cp857.enc',
   'DATA'),
  ('tcl/encoding/iso8859-3.enc',
   '/usr/share/tcltk/tcl8.6/encoding/iso8859-3.enc',
   'DATA'),
  ('tcl/Tix8.4/pref/SGIGray.cs',
   '/usr/share/tcltk/tcl8.6/Tix8.4/pref/SGIGray.cs',
   'DATA'),
  ('tcl/Tix8.4.3/DirList.tcl',
   '/usr/share/tcltk/tcl8.6/Tix8.4.3/DirList.tcl',
   'DATA'),
  ('tcl/Tix8.4.3/bitmaps/ck_def.xbm',
   '/usr/share/tcltk/tcl8.6/Tix8.4.3/bitmaps/ck_def.xbm',
   'DATA'),
  ('tcl/Tix8.4.3/pref/Old14Pt.fs',
   '/usr/share/tcltk/tcl8.6/Tix8.4.3/pref/Old14Pt.fs',
   'DATA'),
  ('tcl/Tix8.4.3/pref/TkWin.fsc',
   '/usr/share/tcltk/tcl8.6/Tix8.4.3/pref/TkWin.fsc',
   'DATA'),
  ('tcl/Tix8.4.3/FloatEnt.tcl',
   '/usr/share/tcltk/tcl8.6/Tix8.4.3/FloatEnt.tcl',
   'DATA'),
  ('tcl/Tix8.4/bitmaps/minusarm.xpm',
   '/usr/share/tcltk/tcl8.6/Tix8.4/bitmaps/minusarm.xpm',
   'DATA'),
  ('tcl/Tix8.4.3/LabEntry.tcl',
   '/usr/share/tcltk/tcl8.6/Tix8.4.3/LabEntry.tcl',
   'DATA'),
  ('tcl/msgs/en_in.msg', '/usr/share/tcltk/tcl8.6/msgs/en_in.msg', 'DATA'),
  ('tcl/encoding/iso8859-2.enc',
   '/usr/share/tcltk/tcl8.6/encoding/iso8859-2.enc',
   'DATA'),
  ('tk/msgs/fr.msg', '/usr/share/tcltk/tk8.6/msgs/fr.msg', 'DATA'),
  ('tcl/msgs/es_py.msg', '/usr/share/tcltk/tcl8.6/msgs/es_py.msg', 'DATA'),
  ('tcl/encoding/jis0208.enc',
   '/usr/share/tcltk/tcl8.6/encoding/jis0208.enc',
   'DATA'),
  ('tcl/Tix8.4.3/FileBox.tcl',
   '/usr/share/tcltk/tcl8.6/Tix8.4.3/FileBox.tcl',
   'DATA'),
  ('tcl/msgs/ar_in.msg', '/usr/share/tcltk/tcl8.6/msgs/ar_in.msg', 'DATA'),
  ('tcl/Tix8.4/DirBox.tcl',
   '/usr/share/tcltk/tcl8.6/Tix8.4/DirBox.tcl',
   'DATA'),
  ('tcl/Tix8.4.3/DirDlg.tcl',
   '/usr/share/tcltk/tcl8.6/Tix8.4.3/DirDlg.tcl',
   'DATA'),
  ('tcl/Tix8.4/SWindow.tcl',
   '/usr/share/tcltk/tcl8.6/Tix8.4/SWindow.tcl',
   'DATA'),
  ('tcl/Tix8.4.3/VResize.tcl',
   '/usr/share/tcltk/tcl8.6/Tix8.4.3/VResize.tcl',
   'DATA'),
  ('tcl/Tix8.4.3/pref/TixGray.csc',
   '/usr/share/tcltk/tcl8.6/Tix8.4.3/pref/TixGray.csc',
   'DATA'),
  ('tcl/Tix8.4/pref/TixGray.cs',
   '/usr/share/tcltk/tcl8.6/Tix8.4/pref/TixGray.cs',
   'DATA'),
  ('tk/ttk/classicTheme.tcl',
   '/usr/share/tcltk/tk8.6/ttk/classicTheme.tcl',
   'DATA'),
  ('tcl/Tix8.4.3/pref/TkWin.cs',
   '/usr/share/tcltk/tcl8.6/Tix8.4.3/pref/TkWin.cs',
   'DATA'),
  ('tcl/Tix8.4/DirTree.tcl',
   '/usr/share/tcltk/tcl8.6/Tix8.4/DirTree.tcl',
   'DATA'),
  ('tcl/msgs/sw.msg', '/usr/share/tcltk/tcl8.6/msgs/sw.msg', 'DATA'),
  ('tk/ttk/panedwindow.tcl',
   '/usr/share/tcltk/tk8.6/ttk/panedwindow.tcl',
   'DATA'),
  ('tcl/Tix8.4/bitmaps/folder.gif',
   '/usr/share/tcltk/tcl8.6/Tix8.4/bitmaps/folder.gif',
   'DATA'),
  ('tk/images/logoMed.gif',
   '/usr/share/tcltk/tk8.6/images/logoMed.gif',
   'DATA'),
  ('tk/palette.tcl', '/usr/share/tcltk/tk8.6/palette.tcl', 'DATA'),
  ('tcl/msgs/en_au.msg', '/usr/share/tcltk/tcl8.6/msgs/en_au.msg', 'DATA'),
  ('tcl/Tix8.4/Tix.tcl', '/usr/share/tcltk/tcl8.6/Tix8.4/Tix.tcl', 'DATA'),
  ('tcl/Tix8.4.3/PanedWin.tcl',
   '/usr/share/tcltk/tcl8.6/Tix8.4.3/PanedWin.tcl',
   'DATA'),
  ('tcl/Tix8.4.3/bitmaps/decr.xbm',
   '/usr/share/tcltk/tcl8.6/Tix8.4.3/bitmaps/decr.xbm',
   'DATA'),
  ('tcl/msgs/kl.msg', '/usr/share/tcltk/tcl8.6/msgs/kl.msg', 'DATA'),
  ('tcl/Tix8.4/DragDrop.tcl',
   '/usr/share/tcltk/tcl8.6/Tix8.4/DragDrop.tcl',
   'DATA'),
  ('tcl/Tix8.4/FileEnt.tcl',
   '/usr/share/tcltk/tcl8.6/Tix8.4/FileEnt.tcl',
   'DATA'),
  ('tcl/Tix8.4/pref/10Point.fsc',
   '/usr/share/tcltk/tcl8.6/Tix8.4/pref/10Point.fsc',
   'DATA'),
  ('tcl/Tix8.4/LabWidg.tcl',
   '/usr/share/tcltk/tcl8.6/Tix8.4/LabWidg.tcl',
   'DATA'),
  ('tcl/Tix8.4.3/Console.tcl',
   '/usr/share/tcltk/tcl8.6/Tix8.4.3/Console.tcl',
   'DATA'),
  ('tcl/encoding/big5.enc',
   '/usr/share/tcltk/tcl8.6/encoding/big5.enc',
   'DATA'),
  ('tcl/msgs/te_in.msg', '/usr/share/tcltk/tcl8.6/msgs/te_in.msg', 'DATA'),
  ('tcl/Tix8.4.3/bitmaps/info.gif',
   '/usr/share/tcltk/tcl8.6/Tix8.4.3/bitmaps/info.gif',
   'DATA'),
  ('tk/ttk/button.tcl', '/usr/share/tcltk/tk8.6/ttk/button.tcl', 'DATA'),
  ('tcl/encoding/cp860.enc',
   '/usr/share/tcltk/tcl8.6/encoding/cp860.enc',
   'DATA'),
  ('tcl/msgs/zh.msg', '/usr/share/tcltk/tcl8.6/msgs/zh.msg', 'DATA'),
  ('tcl/msgs/es_cr.msg', '/usr/share/tcltk/tcl8.6/msgs/es_cr.msg', 'DATA'),
  ('tk/megawidget.tcl', '/usr/share/tcltk/tk8.6/megawidget.tcl', 'DATA'),
  ('tcl/Tix8.4.3/ResizeH.tcl',
   '/usr/share/tcltk/tcl8.6/Tix8.4.3/ResizeH.tcl',
   'DATA'),
  ('tcl/encoding/dingbats.enc',
   '/usr/share/tcltk/tcl8.6/encoding/dingbats.enc',
   'DATA'),
  ('tk/tkfbox.tcl', '/usr/share/tcltk/tk8.6/tkfbox.tcl', 'DATA'),
  ('tcl/encoding/iso8859-16.enc',
   '/usr/share/tcltk/tcl8.6/encoding/iso8859-16.enc',
   'DATA'),
  ('tcl/msgs/sk.msg', '/usr/share/tcltk/tcl8.6/msgs/sk.msg', 'DATA'),
  ('tcl/Tix8.4.3/bitmaps/act_fold.gif',
   '/usr/share/tcltk/tcl8.6/Tix8.4.3/bitmaps/act_fold.gif',
   'DATA'),
  ('tk/msgs/en.msg', '/usr/share/tcltk/tk8.6/msgs/en.msg', 'DATA'),
  ('tcl/encoding/iso8859-5.enc',
   '/usr/share/tcltk/tcl8.6/encoding/iso8859-5.enc',
   'DATA'),
  ('tcl/encoding/macThai.enc',
   '/usr/share/tcltk/tcl8.6/encoding/macThai.enc',
   'DATA'),
  ('tcl/Tix8.4.3/pref/WmDefault.tcl',
   '/usr/share/tcltk/tcl8.6/Tix8.4.3/pref/WmDefault.tcl',
   'DATA'),
  ('tk/entry.tcl', '/usr/share/tcltk/tk8.6/entry.tcl', 'DATA'),
  ('tcl/msgs/es_gt.msg', '/usr/share/tcltk/tcl8.6/msgs/es_gt.msg', 'DATA'),
  ('tcl/encoding/cp863.enc',
   '/usr/share/tcltk/tcl8.6/encoding/cp863.enc',
   'DATA'),
  ('tk/ttk/notebook.tcl', '/usr/share/tcltk/tk8.6/ttk/notebook.tcl', 'DATA'),
  ('tcl/Tix8.4/bitmaps/minimize.xbm',
   '/usr/share/tcltk/tcl8.6/Tix8.4/bitmaps/minimize.xbm',
   'DATA'),
  ('tcl/Tix8.4.3/ComboBox.tcl',
   '/usr/share/tcltk/tcl8.6/Tix8.4.3/ComboBox.tcl',
   'DATA'),
  ('tcl/msgs/kw.msg', '/usr/share/tcltk/tcl8.6/msgs/kw.msg', 'DATA'),
  ('tcl/msgs/ta.msg', '/usr/share/tcltk/tcl8.6/msgs/ta.msg', 'DATA'),
  ('tcl/encoding/cp866.enc',
   '/usr/share/tcltk/tcl8.6/encoding/cp866.enc',
   'DATA'),
  ('tcl/Tix8.4.3/bitmaps/balarrow.xbm',
   '/usr/share/tcltk/tcl8.6/Tix8.4.3/bitmaps/balarrow.xbm',
   'DATA'),
  ('tcl/Tix8.4/bitmaps/plusarm.xpm',
   '/usr/share/tcltk/tcl8.6/Tix8.4/bitmaps/plusarm.xpm',
   'DATA'),
  ('tcl/encoding/cp949.enc',
   '/usr/share/tcltk/tcl8.6/encoding/cp949.enc',
   'DATA'),
  ('tcl/Tix8.4/bitmaps/plus.xpm',
   '/usr/share/tcltk/tcl8.6/Tix8.4/bitmaps/plus.xpm',
   'DATA'),
  ('tcl/msgs/fa_ir.msg', '/usr/share/tcltk/tcl8.6/msgs/fa_ir.msg', 'DATA'),
  ('tcl/Tix8.4/pref/WmDefault.csc',
   '/usr/share/tcltk/tcl8.6/Tix8.4/pref/WmDefault.csc',
   'DATA'),
  ('tcl/Tix8.4.3/Shell.tcl',
   '/usr/share/tcltk/tcl8.6/Tix8.4.3/Shell.tcl',
   'DATA'),
  ('tcl/Tix8.4.3/pref/14Point.fs',
   '/usr/share/tcltk/tcl8.6/Tix8.4.3/pref/14Point.fs',
   'DATA'),
  ('tcl/Tix8.4/bitmaps/ck_def.xbm',
   '/usr/share/tcltk/tcl8.6/Tix8.4/bitmaps/ck_def.xbm',
   'DATA'),
  ('tk/spinbox.tcl', '/usr/share/tcltk/tk8.6/spinbox.tcl', 'DATA'),
  ('tk/ttk/menubutton.tcl',
   '/usr/share/tcltk/tk8.6/ttk/menubutton.tcl',
   'DATA'),
  ('tcl/encoding/macCroatian.enc',
   '/usr/share/tcltk/tcl8.6/encoding/macCroatian.enc',
   'DATA'),
  ('tcl/Tix8.4.3/bitmaps/cbxarrow.xbm',
   '/usr/share/tcltk/tcl8.6/Tix8.4.3/bitmaps/cbxarrow.xbm',
   'DATA'),
  ('tcl/tcl8/platform-1.0.14.tm',
   '/usr/share/tcltk/tcl8.6/tcl8/platform-1.0.14.tm',
   'DATA'),
  ('tcl/Tix8.4/bitmaps/openfile.xbm',
   '/usr/share/tcltk/tcl8.6/Tix8.4/bitmaps/openfile.xbm',
   'DATA'),
  ('tcl/tclAppInit.c', '/usr/share/tcltk/tcl8.6/tclAppInit.c', 'DATA'),
  ('tcl/Tix8.4.3/pref/TixGray.cs',
   '/usr/share/tcltk/tcl8.6/Tix8.4.3/pref/TixGray.cs',
   'DATA'),
  ('tcl/msgs/ga_ie.msg', '/usr/share/tcltk/tcl8.6/msgs/ga_ie.msg', 'DATA'),
  ('tcl/encoding/macCyrillic.enc',
   '/usr/share/tcltk/tcl8.6/encoding/macCyrillic.enc',
   'DATA'),
  ('tcl/Tix8.4.3/Control.tcl',
   '/usr/share/tcltk/tcl8.6/Tix8.4.3/Control.tcl',
   'DATA'),
  ('tcl/msgs/it_ch.msg', '/usr/share/tcltk/tcl8.6/msgs/it_ch.msg', 'DATA'),
  ('tcl/Tix8.4/Balloon.tcl',
   '/usr/share/tcltk/tcl8.6/Tix8.4/Balloon.tcl',
   'DATA'),
  ('tcl/Tix8.4.3/bitmaps/warning.gif',
   '/usr/share/tcltk/tcl8.6/Tix8.4.3/bitmaps/warning.gif',
   'DATA'),
  ('tcl/Tix8.4.3/WInfo.tcl',
   '/usr/share/tcltk/tcl8.6/Tix8.4.3/WInfo.tcl',
   'DATA'),
  ('tcl/msgs/vi.msg', '/usr/share/tcltk/tcl8.6/msgs/vi.msg', 'DATA'),
  ('tcl/Tix8.4/ListNBk.tcl',
   '/usr/share/tcltk/tcl8.6/Tix8.4/ListNBk.tcl',
   'DATA'),
  ('tcl/Tix8.4/bitmaps/minus.xpm',
   '/usr/share/tcltk/tcl8.6/Tix8.4/bitmaps/minus.xpm',
   'DATA'),
  ('tcl/Tix8.4/pref/WmDefault.fsc',
   '/usr/share/tcltk/tcl8.6/Tix8.4/pref/WmDefault.fsc',
   'DATA'),
  ('tcl/encoding/gb2312-raw.enc',
   '/usr/share/tcltk/tcl8.6/encoding/gb2312-raw.enc',
   'DATA'),
  ('tcl/Tix8.4/Shell.tcl', '/usr/share/tcltk/tcl8.6/Tix8.4/Shell.tcl', 'DATA'),
  ('tk/bgerror.tcl', '/usr/share/tcltk/tk8.6/bgerror.tcl', 'DATA'),
  ('tk/text.tcl', '/usr/share/tcltk/tk8.6/text.tcl', 'DATA'),
  ('tcl/Tix8.4/bitmaps/warning.xpm',
   '/usr/share/tcltk/tcl8.6/Tix8.4/bitmaps/warning.xpm',
   'DATA'),
  ('tcl/encoding/cp775.enc',
   '/usr/share/tcltk/tcl8.6/encoding/cp775.enc',
   'DATA'),
  ('tcl/Tix8.4.3/pref/Bisque.cs',
   '/usr/share/tcltk/tcl8.6/Tix8.4.3/pref/Bisque.cs',
   'DATA'),
  ('tcl/Tix8.4.3/ChkList.tcl',
   '/usr/share/tcltk/tcl8.6/Tix8.4.3/ChkList.tcl',
   'DATA'),
  ('tcl/Tix8.4.3/bitmaps/minusarm.xpm',
   '/usr/share/tcltk/tcl8.6/Tix8.4.3/bitmaps/minusarm.xpm',
   'DATA'),
  ('tcl/msgs/en_gb.msg', '/usr/share/tcltk/tcl8.6/msgs/en_gb.msg', 'DATA'),
  ('tcl/msgs/sr.msg', '/usr/share/tcltk/tcl8.6/msgs/sr.msg', 'DATA'),
  ('tk/images/logo100.gif',
   '/usr/share/tcltk/tk8.6/images/logo100.gif',
   'DATA'),
  ('tcl/msgs/ko_kr.msg', '/usr/share/tcltk/tcl8.6/msgs/ko_kr.msg', 'DATA'),
  ('tcl/Tix8.4/bitmaps/plus.xbm',
   '/usr/share/tcltk/tcl8.6/Tix8.4/bitmaps/plus.xbm',
   'DATA'),
  ('tcl/Tix8.4.3/pref/TkWin.csc',
   '/usr/share/tcltk/tcl8.6/Tix8.4.3/pref/TkWin.csc',
   'DATA'),
  ('tcl/Tix8.4/Tree.tcl', '/usr/share/tcltk/tcl8.6/Tix8.4/Tree.tcl', 'DATA'),
  ('tcl/Tix8.4.3/bitmaps/minus.xbm',
   '/usr/share/tcltk/tcl8.6/Tix8.4.3/bitmaps/minus.xbm',
   'DATA'),
  ('tcl/Tix8.4.3/bitmaps/restore.xbm',
   '/usr/share/tcltk/tcl8.6/Tix8.4.3/bitmaps/restore.xbm',
   'DATA'),
  ('tcl/encoding/cp737.enc',
   '/usr/share/tcltk/tcl8.6/encoding/cp737.enc',
   'DATA'),
  ('tcl/msgs/kw_gb.msg', '/usr/share/tcltk/tcl8.6/msgs/kw_gb.msg', 'DATA'),
  ('tcl/Tix8.4.3/PopMenu.tcl',
   '/usr/share/tcltk/tcl8.6/Tix8.4.3/PopMenu.tcl',
   'DATA'),
  ('tcl/tclIndex', '/usr/share/tcltk/tcl8.6/tclIndex', 'DATA'),
  ('tcl/Tix8.4/bitmaps/plusarm.xbm',
   '/usr/share/tcltk/tcl8.6/Tix8.4/bitmaps/plusarm.xbm',
   'DATA'),
  ('tcl/Tix8.4/pref/TkWin.csc',
   '/usr/share/tcltk/tcl8.6/Tix8.4/pref/TkWin.csc',
   'DATA'),
  ('tcl/Tix8.4/MultView.tcl',
   '/usr/share/tcltk/tcl8.6/Tix8.4/MultView.tcl',
   'DATA'),
  ('tcl/Tix8.4.3/Grid.tcl',
   '/usr/share/tcltk/tcl8.6/Tix8.4.3/Grid.tcl',
   'DATA'),
  ('tcl/Tix8.4/FileCbx.tcl',
   '/usr/share/tcltk/tcl8.6/Tix8.4/FileCbx.tcl',
   'DATA'),
  ('tcl/Tix8.4.3/bitmaps/plusarm.gif',
   '/usr/share/tcltk/tcl8.6/Tix8.4.3/bitmaps/plusarm.gif',
   'DATA'),
  ('tcl/Tix8.4.3/StdBBox.tcl',
   '/usr/share/tcltk/tcl8.6/Tix8.4.3/StdBBox.tcl',
   'DATA'),
  ('tcl/Tix8.4.3/Utils.tcl',
   '/usr/share/tcltk/tcl8.6/Tix8.4.3/Utils.tcl',
   'DATA'),
  ('tcl/Tix8.4.3/pref/WmDefault.fsc',
   '/usr/share/tcltk/tcl8.6/Tix8.4.3/pref/WmDefault.fsc',
   'DATA'),
  ('tcl/msgs/eo.msg', '/usr/share/tcltk/tcl8.6/msgs/eo.msg', 'DATA'),
  ('tcl/Tix8.4/STList.tcl',
   '/usr/share/tcltk/tcl8.6/Tix8.4/STList.tcl',
   'DATA'),
  ('tcl/msgs/fa.msg', '/usr/share/tcltk/tcl8.6/msgs/fa.msg', 'DATA'),
  ('tcl/Tix8.4.3/OptMenu.tcl',
   '/usr/share/tcltk/tcl8.6/Tix8.4.3/OptMenu.tcl',
   'DATA'),
  ('tcl/encoding/cp850.enc',
   '/usr/share/tcltk/tcl8.6/encoding/cp850.enc',
   'DATA'),
  ('tcl/Tix8.4.3/EFileDlg.tcl',
   '/usr/share/tcltk/tcl8.6/Tix8.4.3/EFileDlg.tcl',
   'DATA'),
  ('tcl/Tix8.4/PopMenu.tcl',
   '/usr/share/tcltk/tcl8.6/Tix8.4/PopMenu.tcl',
   'DATA'),
  ('tk/ttk/sizegrip.tcl', '/usr/share/tcltk/tk8.6/ttk/sizegrip.tcl', 'DATA'),
  ('tcl/msgs/pt_br.msg', '/usr/share/tcltk/tcl8.6/msgs/pt_br.msg', 'DATA'),
  ('tcl/Tix8.4/bitmaps/ck_off.xbm',
   '/usr/share/tcltk/tcl8.6/Tix8.4/bitmaps/ck_off.xbm',
   'DATA'),
  ('tcl/Tix8.4.3/bitmaps/openfile.xbm',
   '/usr/share/tcltk/tcl8.6/Tix8.4.3/bitmaps/openfile.xbm',
   'DATA'),
  ('tcl/Tix8.4/Compat.tcl',
   '/usr/share/tcltk/tcl8.6/Tix8.4/Compat.tcl',
   'DATA'),
  ('tcl/msgs/en_za.msg', '/usr/share/tcltk/tcl8.6/msgs/en_za.msg', 'DATA'),
  ('tcl/Tix8.4.3/FileDlg.tcl',
   '/usr/share/tcltk/tcl8.6/Tix8.4.3/FileDlg.tcl',
   'DATA'),
  ('tcl/Tix8.4/bitmaps/openfold.xbm',
   '/usr/share/tcltk/tcl8.6/Tix8.4/bitmaps/openfold.xbm',
   'DATA'),
  ('tcl/msgs/is.msg', '/usr/share/tcltk/tcl8.6/msgs/is.msg', 'DATA'),
  ('tcl/encoding/iso8859-1.enc',
   '/usr/share/tcltk/tcl8.6/encoding/iso8859-1.enc',
   'DATA'),
  ('tcl/Tix8.4.3/bitmaps/minimize.xbm',
   '/usr/share/tcltk/tcl8.6/Tix8.4.3/bitmaps/minimize.xbm',
   'DATA'),
  ('tcl/Tix8.4/bitmaps/cross.xbm',
   '/usr/share/tcltk/tcl8.6/Tix8.4/bitmaps/cross.xbm',
   'DATA'),
  ('tk/safetk.tcl', '/usr/share/tcltk/tk8.6/safetk.tcl', 'DATA'),
  ('tk/ttk/progress.tcl', '/usr/share/tcltk/tk8.6/ttk/progress.tcl', 'DATA'),
  ('tcl/encoding/cp1255.enc',
   '/usr/share/tcltk/tcl8.6/encoding/cp1255.enc',
   'DATA'),
  ('tcl/Tix8.4/bitmaps/restore.xbm',
   '/usr/share/tcltk/tcl8.6/Tix8.4/bitmaps/restore.xbm',
   'DATA'),
  ('tcl/Tix8.4/ChkList.tcl',
   '/usr/share/tcltk/tcl8.6/Tix8.4/ChkList.tcl',
   'DATA'),
  ('tcl/encoding/tis-620.enc',
   '/usr/share/tcltk/tcl8.6/encoding/tis-620.enc',
   'DATA'),
  ('tk/mkpsenc.tcl', '/usr/share/tcltk/tk8.6/mkpsenc.tcl', 'DATA'),
  ('tk/optMenu.tcl', '/usr/share/tcltk/tk8.6/optMenu.tcl', 'DATA'),
  ('tcl/Tix8.4/OldUtil.tcl',
   '/usr/share/tcltk/tcl8.6/Tix8.4/OldUtil.tcl',
   'DATA'),
  ('tcl/Tix8.4/Console.tcl',
   '/usr/share/tcltk/tcl8.6/Tix8.4/Console.tcl',
   'DATA'),
  ('tcl/Tix8.4/Control.tcl',
   '/usr/share/tcltk/tcl8.6/Tix8.4/Control.tcl',
   'DATA'),
  ('tk/ttk/ttk.tcl', '/usr/share/tcltk/tk8.6/ttk/ttk.tcl', 'DATA'),
  ('tcl/Tix8.4.3/VTree.tcl',
   '/usr/share/tcltk/tcl8.6/Tix8.4.3/VTree.tcl',
   'DATA'),
  ('tcl/Tix8.4.3/Variable.tcl',
   '/usr/share/tcltk/tcl8.6/Tix8.4.3/Variable.tcl',
   'DATA'),
  ('tcl/Tix8.4/pref/Bisque.cs',
   '/usr/share/tcltk/tcl8.6/Tix8.4/pref/Bisque.cs',
   'DATA'),
  ('tcl/msgs/ta_in.msg', '/usr/share/tcltk/tcl8.6/msgs/ta_in.msg', 'DATA'),
  ('tcl/encoding/cp861.enc',
   '/usr/share/tcltk/tcl8.6/encoding/cp861.enc',
   'DATA'),
  ('tk/msgs/pl.msg', '/usr/share/tcltk/tk8.6/msgs/pl.msg', 'DATA'),
  ('tcl/msgs/es_pe.msg', '/usr/share/tcltk/tcl8.6/msgs/es_pe.msg', 'DATA'),
  ('tcl/word.tcl', '/usr/share/tcltk/tcl8.6/word.tcl', 'DATA'),
  ('tcl/Tix8.4.3/bitmaps/textfile.gif',
   '/usr/share/tcltk/tcl8.6/Tix8.4.3/bitmaps/textfile.gif',
   'DATA'),
  ('tcl/msgs/fo.msg', '/usr/share/tcltk/tcl8.6/msgs/fo.msg', 'DATA'),
  ('tcl/Tix8.4.3/DirTree.tcl',
   '/usr/share/tcltk/tcl8.6/Tix8.4.3/DirTree.tcl',
   'DATA'),
  ('tcl/Tix8.4/Init.tcl', '/usr/share/tcltk/tcl8.6/Tix8.4/Init.tcl', 'DATA'),
  ('tcl/Tix8.4.3/bitmaps/drop.xbm',
   '/usr/share/tcltk/tcl8.6/Tix8.4.3/bitmaps/drop.xbm',
   'DATA'),
  ('tcl/msgs/te.msg', '/usr/share/tcltk/tcl8.6/msgs/te.msg', 'DATA'),
  ('tcl/Tix8.4/bitmaps/cbxarrow.xbm',
   '/usr/share/tcltk/tcl8.6/Tix8.4/bitmaps/cbxarrow.xbm',
   'DATA'),
  ('tcl/Tix8.4/bitmaps/decr.xbm',
   '/usr/share/tcltk/tcl8.6/Tix8.4/bitmaps/decr.xbm',
   'DATA'),
  ('tcl/Tix8.4/CObjView.tcl',
   '/usr/share/tcltk/tcl8.6/Tix8.4/CObjView.tcl',
   'DATA'),
  ('tk/msgs/da.msg', '/usr/share/tcltk/tk8.6/msgs/da.msg', 'DATA'),
  ('tk/iconlist.tcl', '/usr/share/tcltk/tk8.6/iconlist.tcl', 'DATA'),
  ('tcl/msgs/bn_in.msg', '/usr/share/tcltk/tcl8.6/msgs/bn_in.msg', 'DATA'),
  ('tcl/msgs/af_za.msg', '/usr/share/tcltk/tcl8.6/msgs/af_za.msg', 'DATA'),
  ('tk/msgs/pt.msg', '/usr/share/tcltk/tk8.6/msgs/pt.msg', 'DATA'),
  ('tcl/Tix8.4.3/pref/SGIGray.cs',
   '/usr/share/tcltk/tcl8.6/Tix8.4.3/pref/SGIGray.cs',
   'DATA'),
  ('tcl/msgs/fo_fo.msg', '/usr/share/tcltk/tcl8.6/msgs/fo_fo.msg', 'DATA'),
  ('tcl/Tix8.4/bitmaps/network.xbm',
   '/usr/share/tcltk/tcl8.6/Tix8.4/bitmaps/network.xbm',
   'DATA'),
  ('tcl/msgs/ar_jo.msg', '/usr/share/tcltk/tcl8.6/msgs/ar_jo.msg', 'DATA'),
  ('tcl/Tix8.4/bitmaps/srcfile.gif',
   '/usr/share/tcltk/tcl8.6/Tix8.4/bitmaps/srcfile.gif',
   'DATA'),
  ('tcl/msgs/ro.msg', '/usr/share/tcltk/tcl8.6/msgs/ro.msg', 'DATA'),
  ('tcl/msgs/fi.msg', '/usr/share/tcltk/tcl8.6/msgs/fi.msg', 'DATA'),
  ('tcl/Tix8.4.3/bitmaps/openfold.xpm',
   '/usr/share/tcltk/tcl8.6/Tix8.4.3/bitmaps/openfold.xpm',
   'DATA'),
  ('tk/images/pwrdLogo75.gif',
   '/usr/share/tcltk/tk8.6/images/pwrdLogo75.gif',
   'DATA'),
  ('tcl/msgs/en_ca.msg', '/usr/share/tcltk/tcl8.6/msgs/en_ca.msg', 'DATA'),
  ('tcl/Tix8.4.3/SGrid.tcl',
   '/usr/share/tcltk/tcl8.6/Tix8.4.3/SGrid.tcl',
   'DATA'),
  ('tcl/msgs/ru_ua.msg', '/usr/share/tcltk/tcl8.6/msgs/ru_ua.msg', 'DATA'),
  ('tcl/msgs/sh.msg', '/usr/share/tcltk/tcl8.6/msgs/sh.msg', 'DATA'),
  ('tk/ttk/vistaTheme.tcl',
   '/usr/share/tcltk/tk8.6/ttk/vistaTheme.tcl',
   'DATA'),
  ('tcl/msgs/lt.msg', '/usr/share/tcltk/tcl8.6/msgs/lt.msg', 'DATA'),
  ('tcl/msgs/ga.msg', '/usr/share/tcltk/tcl8.6/msgs/ga.msg', 'DATA'),
  ('tcl/msgs/ar.msg', '/usr/share/tcltk/tcl8.6/msgs/ar.msg', 'DATA'),
  ('tcl/encoding/cp865.enc',
   '/usr/share/tcltk/tcl8.6/encoding/cp865.enc',
   'DATA'),
  ('tcl/encoding/iso8859-13.enc',
   '/usr/share/tcltk/tcl8.6/encoding/iso8859-13.enc',
   'DATA'),
  ('tcl/Tix8.4/bitmaps/minusarm.xbm',
   '/usr/share/tcltk/tcl8.6/Tix8.4/bitmaps/minusarm.xbm',
   'DATA'),
  ('tcl/Tix8.4.3/bitmaps/info.xpm',
   '/usr/share/tcltk/tcl8.6/Tix8.4.3/bitmaps/info.xpm',
   'DATA'),
  ('tcl/Tix8.4.3/Init.tcl',
   '/usr/share/tcltk/tcl8.6/Tix8.4.3/Init.tcl',
   'DATA'),
  ('tcl/encoding/cp1252.enc',
   '/usr/share/tcltk/tcl8.6/encoding/cp1252.enc',
   'DATA'),
  ('tcl/Tix8.4/bitmaps/harddisk.xbm',
   '/usr/share/tcltk/tcl8.6/Tix8.4/bitmaps/harddisk.xbm',
   'DATA'),
  ('tcl/Tix8.4.3/StackWin.tcl',
   '/usr/share/tcltk/tcl8.6/Tix8.4.3/StackWin.tcl',
   'DATA'),
  ('tcl/msgs/es_do.msg', '/usr/share/tcltk/tcl8.6/msgs/es_do.msg', 'DATA'),
  ('tcl/Tix8.4/bitmaps/srcfile.xbm',
   '/usr/share/tcltk/tcl8.6/Tix8.4/bitmaps/srcfile.xbm',
   'DATA'),
  ('tk/choosedir.tcl', '/usr/share/tcltk/tk8.6/choosedir.tcl', 'DATA'),
  ('tcl/encoding/ascii.enc',
   '/usr/share/tcltk/tcl8.6/encoding/ascii.enc',
   'DATA'),
  ('tcl/Tix8.4.3/bitmaps/srcfile.xbm',
   '/usr/share/tcltk/tcl8.6/Tix8.4.3/bitmaps/srcfile.xbm',
   'DATA'),
  ('tcl/Tix8.4.3/bitmaps/warning.xpm',
   '/usr/share/tcltk/tcl8.6/Tix8.4.3/bitmaps/warning.xpm',
   'DATA'),
  ('tcl/msgs/en_ph.msg', '/usr/share/tcltk/tcl8.6/msgs/en_ph.msg', 'DATA'),
  ('tk/focus.tcl', '/usr/share/tcltk/tk8.6/focus.tcl', 'DATA'),
  ('tk/ttk/combobox.tcl', '/usr/share/tcltk/tk8.6/ttk/combobox.tcl', 'DATA'),
  ('tcl/msgs/ja.msg', '/usr/share/tcltk/tcl8.6/msgs/ja.msg', 'DATA'),
  ('tcl/Tix8.4.3/SimpDlg.tcl',
   '/usr/share/tcltk/tcl8.6/Tix8.4.3/SimpDlg.tcl',
   'DATA'),
  ('tcl/Tix8.4.3/OldUtil.tcl',
   '/usr/share/tcltk/tcl8.6/Tix8.4.3/OldUtil.tcl',
   'DATA'),
  ('tcl/Tix8.4.3/HList.tcl',
   '/usr/share/tcltk/tcl8.6/Tix8.4.3/HList.tcl',
   'DATA'),
  ('tcl/Tix8.4.3/bitmaps/openfold.gif',
   '/usr/share/tcltk/tcl8.6/Tix8.4.3/bitmaps/openfold.gif',
   'DATA'),
  ('tcl/encoding/cp950.enc',
   '/usr/share/tcltk/tcl8.6/encoding/cp950.enc',
   'DATA'),
  ('tcl/encoding/iso2022-kr.enc',
   '/usr/share/tcltk/tcl8.6/encoding/iso2022-kr.enc',
   'DATA'),
  ('tcl/Tix8.4/bitmaps/file.xbm',
   '/usr/share/tcltk/tcl8.6/Tix8.4/bitmaps/file.xbm',
   'DATA'),
  ('tcl/http1.0/pkgIndex.tcl',
   '/usr/share/tcltk/tcl8.6/http1.0/pkgIndex.tcl',
   'DATA'),
  ('tcl/Tix8.4.3/bitmaps/maximize.xbm',
   '/usr/share/tcltk/tcl8.6/Tix8.4.3/bitmaps/maximize.xbm',
   'DATA'),
  ('tcl/Tix8.4.3/pref/Bisque.csc',
   '/usr/share/tcltk/tcl8.6/Tix8.4.3/pref/Bisque.csc',
   'DATA'),
  ('importlib_metadata-1.5.0.egg-info/requires.txt',
   '/usr/lib/python3/dist-packages/importlib_metadata-1.5.0.egg-info/requires.txt',
   'DATA'),
  ('tcl/msgs/es_cl.msg', '/usr/share/tcltk/tcl8.6/msgs/es_cl.msg', 'DATA'),
  ('tcl/Tix8.4/bitmaps/minus.xbm',
   '/usr/share/tcltk/tcl8.6/Tix8.4/bitmaps/minus.xbm',
   'DATA'),
  ('tcl/Tix8.4/pref/TK.csc',
   '/usr/share/tcltk/tcl8.6/Tix8.4/pref/TK.csc',
   'DATA'),
  ('tk/ttk/altTheme.tcl', '/usr/share/tcltk/tk8.6/ttk/altTheme.tcl', 'DATA'),
  ('tcl/msgs/sl.msg', '/usr/share/tcltk/tcl8.6/msgs/sl.msg', 'DATA'),
  ('tcl/Tix8.4/pref/SGIGray.csc',
   '/usr/share/tcltk/tcl8.6/Tix8.4/pref/SGIGray.csc',
   'DATA'),
  ('tcl/Tix8.4.3/bitmaps/file.xpm',
   '/usr/share/tcltk/tcl8.6/Tix8.4.3/bitmaps/file.xpm',
   'DATA'),
  ('tcl/Tix8.4.3/bitmaps/hourglas.mask',
   '/usr/share/tcltk/tcl8.6/Tix8.4.3/bitmaps/hourglas.mask',
   'DATA'),
  ('tk/ttk/cursors.tcl', '/usr/share/tcltk/tk8.6/ttk/cursors.tcl', 'DATA'),
  ('tcl/Tix8.4.3/pref/pkgIndex.tcl',
   '/usr/share/tcltk/tcl8.6/Tix8.4.3/pref/pkgIndex.tcl',
   'DATA'),
  ('tcl/Tix8.4/README.txt',
   '/usr/share/tcltk/tcl8.6/Tix8.4/README.txt',
   'DATA'),
  ('tcl/Tix8.4.3/SListBox.tcl',
   '/usr/share/tcltk/tcl8.6/Tix8.4.3/SListBox.tcl',
   'DATA'),
  ('tcl/Tix8.4.3/pref/WmDefault.py',
   '/usr/share/tcltk/tcl8.6/Tix8.4.3/pref/WmDefault.py',
   'DATA'),
  ('tcl/msgs/mr.msg', '/usr/share/tcltk/tcl8.6/msgs/mr.msg', 'DATA'),
  ('tcl/Tix8.4/pref/14Point.fsc',
   '/usr/share/tcltk/tcl8.6/Tix8.4/pref/14Point.fsc',
   'DATA'),
  ('tcl/Tix8.4/StackWin.tcl',
   '/usr/share/tcltk/tcl8.6/Tix8.4/StackWin.tcl',
   'DATA'),
  ('tcl/Tix8.4/bitmaps/plusarm.gif',
   '/usr/share/tcltk/tcl8.6/Tix8.4/bitmaps/plusarm.gif',
   'DATA'),
  ('tcl/msgs/gl.msg', '/usr/share/tcltk/tcl8.6/msgs/gl.msg', 'DATA'),
  ('tcl/Tix8.4.3/BtnBox.tcl',
   '/usr/share/tcltk/tcl8.6/Tix8.4.3/BtnBox.tcl',
   'DATA'),
  ('tcl/Tix8.4.3/bitmaps/plus.xbm',
   '/usr/share/tcltk/tcl8.6/Tix8.4.3/bitmaps/plus.xbm',
   'DATA'),
  ('tcl/msgs/hr.msg', '/usr/share/tcltk/tcl8.6/msgs/hr.msg', 'DATA'),
  ('tcl/Tix8.4.3/SWidget.tcl',
   '/usr/share/tcltk/tcl8.6/Tix8.4.3/SWidget.tcl',
   'DATA'),
  ('tcl/encoding/macJapan.enc',
   '/usr/share/tcltk/tcl8.6/encoding/macJapan.enc',
   'DATA'),
  ('tcl/Tix8.4/SHList.tcl',
   '/usr/share/tcltk/tcl8.6/Tix8.4/SHList.tcl',
   'DATA'),
  ('tcl/Tix8.4/pref/WmDefault.py',
   '/usr/share/tcltk/tcl8.6/Tix8.4/pref/WmDefault.py',
   'DATA'),
  ('tcl/Tix8.4.3/SWindow.tcl',
   '/usr/share/tcltk/tcl8.6/Tix8.4.3/SWindow.tcl',
   'DATA'),
  ('tcl/Tix8.4.3/StdShell.tcl',
   '/usr/share/tcltk/tcl8.6/Tix8.4.3/StdShell.tcl',
   'DATA'),
  ('tcl/Tix8.4/bitmaps/tick.xbm',
   '/usr/share/tcltk/tcl8.6/Tix8.4/bitmaps/tick.xbm',
   'DATA'),
  ('tcl/Tix8.4/pref/TixGray.csc',
   '/usr/share/tcltk/tcl8.6/Tix8.4/pref/TixGray.csc',
   'DATA'),
  ('tcl/Tix8.4.3/pref/WmDefault.fs',
   '/usr/share/tcltk/tcl8.6/Tix8.4.3/pref/WmDefault.fs',
   'DATA'),
  ('tcl/msgs/es_pa.msg', '/usr/share/tcltk/tcl8.6/msgs/es_pa.msg', 'DATA'),
  ('tk/msgs/en_gb.msg', '/usr/share/tcltk/tk8.6/msgs/en_gb.msg', 'DATA'),
  ('tcl/Tix8.4/DirDlg.tcl',
   '/usr/share/tcltk/tcl8.6/Tix8.4/DirDlg.tcl',
   'DATA'),
  ('tcl/msgs/fr_ch.msg', '/usr/share/tcltk/tcl8.6/msgs/fr_ch.msg', 'DATA'),
  ('tcl/Tix8.4/DialogS.tcl',
   '/usr/share/tcltk/tcl8.6/Tix8.4/DialogS.tcl',
   'DATA'),
  ('tcl/encoding/cp437.enc',
   '/usr/share/tcltk/tcl8.6/encoding/cp437.enc',
   'DATA'),
  ('tcl/Tix8.4.3/Balloon.tcl',
   '/usr/share/tcltk/tcl8.6/Tix8.4.3/Balloon.tcl',
   'DATA'),
  ('tcl/Tix8.4/pref/Old14Pt.fs',
   '/usr/share/tcltk/tcl8.6/Tix8.4/pref/Old14Pt.fs',
   'DATA'),
  ('tcl/encoding/macIceland.enc',
   '/usr/share/tcltk/tcl8.6/encoding/macIceland.enc',
   'DATA'),
  ('tkinter_tooltip-2.1.0.dist-info/WHEEL',
   '/home/arnaud/.local/lib/python3.8/site-packages/tkinter_tooltip-2.1.0.dist-info/WHEEL',
   'DATA'),
  ('tkinter_tooltip-2.1.0.dist-info/LICENSE',
   '/home/arnaud/.local/lib/python3.8/site-packages/tkinter_tooltip-2.1.0.dist-info/LICENSE',
   'DATA'),
  ('tkinter_tooltip-2.1.0.dist-info/REQUESTED',
   '/home/arnaud/.local/lib/python3.8/site-packages/tkinter_tooltip-2.1.0.dist-info/REQUESTED',
   'DATA'),
  ('tkinter_tooltip-2.1.0.dist-info/INSTALLER',
   '/home/arnaud/.local/lib/python3.8/site-packages/tkinter_tooltip-2.1.0.dist-info/INSTALLER',
   'DATA'),
  ('tkinter_tooltip-2.1.0.dist-info/top_level.txt',
   '/home/arnaud/.local/lib/python3.8/site-packages/tkinter_tooltip-2.1.0.dist-info/top_level.txt',
   'DATA'),
  ('tkinter_tooltip-2.1.0.dist-info/METADATA',
   '/home/arnaud/.local/lib/python3.8/site-packages/tkinter_tooltip-2.1.0.dist-info/METADATA',
   'DATA'),
  ('tkinter_tooltip-2.1.0.dist-info/RECORD',
   '/home/arnaud/.local/lib/python3.8/site-packages/tkinter_tooltip-2.1.0.dist-info/RECORD',
   'DATA'),
  ('assets/themes/Breeze/checkbox-unchecked-active.png',
   '/home/arnaud/fracatux/assets/themes/Breeze/checkbox-unchecked-active.png',
   'DATA'),
  ('assets/themes/Breeze/arrow-down-small-insens.png',
   '/home/arnaud/fracatux/assets/themes/Breeze/arrow-down-small-insens.png',
   'DATA'),
  ('assets/themes/Breeze/radiobutton-unchecked-active.odg',
   '/home/arnaud/fracatux/assets/themes/Breeze/radiobutton-unchecked-active.odg',
   'DATA'),
  ('assets/themes/Breeze/checkbox-unchecked-insensitive.png',
   '/home/arnaud/fracatux/assets/themes/Breeze/checkbox-unchecked-insensitive.png',
   'DATA'),
  ('assets/images/options.png',
   '/home/arnaud/fracatux/assets/images/options.png',
   'DATA'),
  ('assets/themes/Breeze/radio-unchecked-insensitive.png',
   '/home/arnaud/fracatux/assets/themes/Breeze/radio-unchecked-insensitive.png',
   'DATA'),
  ('assets/themes/Breeze/treeview.png',
   '/home/arnaud/fracatux/assets/themes/Breeze/treeview.png',
   'DATA'),
  ('assets/images/scientifique.png',
   '/home/arnaud/fracatux/assets/images/scientifique.png',
   'DATA'),
  ('assets/images/pin_noir.png',
   '/home/arnaud/fracatux/assets/images/pin_noir.png',
   'DATA'),
  ('assets/themes/Breeze/entry-active.png',
   '/home/arnaud/fracatux/assets/themes/Breeze/entry-active.png',
   'DATA'),
  ('assets/images/sortiepleinecran.png',
   '/home/arnaud/fracatux/assets/images/sortiepleinecran.png',
   'DATA'),
  ('assets/themes/Breeze/scale-slider-pressed.png',
   '/home/arnaud/fracatux/assets/themes/Breeze/scale-slider-pressed.png',
   'DATA'),
  ('assets/images/logo720.png',
   '/home/arnaud/fracatux/assets/images/logo720.png',
   'DATA'),
  ('assets/themes/Breeze/scrollbar-slider-insens.png',
   '/home/arnaud/fracatux/assets/themes/Breeze/scrollbar-slider-insens.png',
   'DATA'),
  ('assets/themes/Breeze/transparent.png',
   '/home/arnaud/fracatux/assets/themes/Breeze/transparent.png',
   'DATA'),
  ('assets/themes/Breeze/arrow-down-small-prelight.png',
   '/home/arnaud/fracatux/assets/themes/Breeze/arrow-down-small-prelight.png',
   'DATA'),
  ('assets/images/corbeille2.png',
   '/home/arnaud/fracatux/assets/images/corbeille2.png',
   'DATA'),
  ('assets/themes/Breeze/arrow-down-insens.png',
   '/home/arnaud/fracatux/assets/themes/Breeze/arrow-down-insens.png',
   'DATA'),
  ('assets/themes/Breeze/entry-focus.png',
   '/home/arnaud/fracatux/assets/themes/Breeze/entry-focus.png',
   'DATA'),
  ('assets/themes/Breeze/button-active.png',
   '/home/arnaud/fracatux/assets/themes/Breeze/button-active.png',
   'DATA'),
  ('assets/themes/Breeze/checkbox-checked-active.png',
   '/home/arnaud/fracatux/assets/themes/Breeze/checkbox-checked-active.png',
   'DATA'),
  ('assets/images/icone.ico',
   '/home/arnaud/fracatux/assets/images/icone.ico',
   'DATA'),
  ('assets/images/pixel_transparent.png',
   '/home/arnaud/fracatux/assets/images/pixel_transparent.png',
   'DATA'),
  ('assets/themes/Breeze/arrow-up.png',
   '/home/arnaud/fracatux/assets/themes/Breeze/arrow-up.png',
   'DATA'),
  ('assets/themes/Breeze/radio-unchecked-active.png',
   '/home/arnaud/fracatux/assets/themes/Breeze/radio-unchecked-active.png',
   'DATA'),
  ('assets/themes/Breeze/treeheading-prelight.png',
   '/home/arnaud/fracatux/assets/themes/Breeze/treeheading-prelight.png',
   'DATA'),
  ('assets/themes/Breeze/radio-checked-pressed.png',
   '/home/arnaud/fracatux/assets/themes/Breeze/radio-checked-pressed.png',
   'DATA'),
  ('assets/themes/Breeze/radio-check-preesed',
   '/home/arnaud/fracatux/assets/themes/Breeze/radio-check-preesed',
   'DATA'),
  ('assets/themes/Breeze/button-insensitive.png',
   '/home/arnaud/fracatux/assets/themes/Breeze/button-insensitive.png',
   'DATA'),
  ('assets/images/fusion.png',
   '/home/arnaud/fracatux/assets/images/fusion.png',
   'DATA'),
  ('assets/themes/Breeze/scrollbar-trough-horiz-active.png',
   '/home/arnaud/fracatux/assets/themes/Breeze/scrollbar-trough-horiz-active.png',
   'DATA'),
  ('assets/themes/Breeze/arrow-down-prelight.png',
   '/home/arnaud/fracatux/assets/themes/Breeze/arrow-down-prelight.png',
   'DATA'),
  ('assets/themes/Breeze/checkbox-unchecked.png',
   '/home/arnaud/fracatux/assets/themes/Breeze/checkbox-unchecked.png',
   'DATA'),
  ('assets/images/decimale.png',
   '/home/arnaud/fracatux/assets/images/decimale.png',
   'DATA'),
  ('assets/themes/Breeze/entry.png',
   '/home/arnaud/fracatux/assets/themes/Breeze/entry.png',
   'DATA'),
  ('assets/themes/Breeze/labelframe.png',
   '/home/arnaud/fracatux/assets/themes/Breeze/labelframe.png',
   'DATA'),
  ('assets/themes/Breeze/scale-slider-active.png',
   '/home/arnaud/fracatux/assets/themes/Breeze/scale-slider-active.png',
   'DATA'),
  ('assets/themes/Breeze/radio-checked-insensitive.png',
   '/home/arnaud/fracatux/assets/themes/Breeze/radio-checked-insensitive.png',
   'DATA'),
  ('assets/images/corbeille.png',
   '/home/arnaud/fracatux/assets/images/corbeille.png',
   'DATA'),
  ('assets/images/aide.png',
   '/home/arnaud/fracatux/assets/images/aide.png',
   'DATA'),
  ('assets/themes/Breeze/arrow-right-insens.png',
   '/home/arnaud/fracatux/assets/themes/Breeze/arrow-right-insens.png',
   'DATA'),
  ('assets/themes/Breeze/empty.png',
   '/home/arnaud/fracatux/assets/themes/Breeze/empty.png',
   'DATA'),
  ('assets/images/pin_vert.png',
   '/home/arnaud/fracatux/assets/images/pin_vert.png',
   'DATA'),
  ('assets/themes/Breeze/scrollbar-slider-horiz.png',
   '/home/arnaud/fracatux/assets/themes/Breeze/scrollbar-slider-horiz.png',
   'DATA'),
  ('assets/themes/Breeze/checkbox-checked.png',
   '/home/arnaud/fracatux/assets/themes/Breeze/checkbox-checked.png',
   'DATA'),
  ('assets/images/pourcentage.png',
   '/home/arnaud/fracatux/assets/images/pourcentage.png',
   'DATA'),
  ('assets/themes/Breeze/scale-trough-horizontal.png',
   '/home/arnaud/fracatux/assets/themes/Breeze/scale-trough-horizontal.png',
   'DATA'),
  ('assets/images/multiplier.png',
   '/home/arnaud/fracatux/assets/images/multiplier.png',
   'DATA'),
  ('assets/themes/Breeze/slider-vert-insens.png',
   '/home/arnaud/fracatux/assets/themes/Breeze/slider-vert-insens.png',
   'DATA'),
  ('assets/images/decoupe_uitaire.png',
   '/home/arnaud/fracatux/assets/images/decoupe_uitaire.png',
   'DATA'),
  ('assets/images/grain.png',
   '/home/arnaud/fracatux/assets/images/grain.png',
   'DATA'),
  ('assets/images/pin_rouge.png',
   '/home/arnaud/fracatux/assets/images/pin_rouge.png',
   'DATA'),
  ('assets/themes/Breeze/radio-checked-active.png',
   '/home/arnaud/fracatux/assets/themes/Breeze/radio-checked-active.png',
   'DATA'),
  ('assets/images/info.png',
   '/home/arnaud/fracatux/assets/images/info.png',
   'DATA'),
  ('assets/themes/Breeze/scale-slider-insensitive.png',
   '/home/arnaud/fracatux/assets/themes/Breeze/scale-slider-insensitive.png',
   'DATA'),
  ('assets/themes/Breeze/checkbox-checked-insensitive.png',
   '/home/arnaud/fracatux/assets/themes/Breeze/checkbox-checked-insensitive.png',
   'DATA'),
  ('assets/themes/Breeze/radio-checked.png',
   '/home/arnaud/fracatux/assets/themes/Breeze/radio-checked.png',
   'DATA'),
  ('assets/themes/Breeze/radio-unchecked-pressed.png',
   '/home/arnaud/fracatux/assets/themes/Breeze/radio-unchecked-pressed.png',
   'DATA'),
  ('assets/themes/Breeze/arrow-left.png',
   '/home/arnaud/fracatux/assets/themes/Breeze/arrow-left.png',
   'DATA'),
  ('assets/themes/Breeze/checkbox-checked-pressed.png',
   '/home/arnaud/fracatux/assets/themes/Breeze/checkbox-checked-pressed.png',
   'DATA'),
  ('assets/themes/Breeze/arrow-up-small.png',
   '/home/arnaud/fracatux/assets/themes/Breeze/arrow-up-small.png',
   'DATA'),
  ('assets/themes/breeze.tcl',
   '/home/arnaud/fracatux/assets/themes/breeze.tcl',
   'DATA'),
  ('assets/themes/Breeze/arrow-left-insens.png',
   '/home/arnaud/fracatux/assets/themes/Breeze/arrow-left-insens.png',
   'DATA'),
  ('assets/themes/Breeze/arrow-up-small-insens.png',
   '/home/arnaud/fracatux/assets/themes/Breeze/arrow-up-small-insens.png',
   'DATA'),
  ('assets/themes/Breeze/scrollbar-slider-horiz-active.png',
   '/home/arnaud/fracatux/assets/themes/Breeze/scrollbar-slider-horiz-active.png',
   'DATA'),
  ('assets/themes/Breeze/scale-slider.png',
   '/home/arnaud/fracatux/assets/themes/Breeze/scale-slider.png',
   'DATA'),
  ('assets/images/quitter.png',
   '/home/arnaud/fracatux/assets/images/quitter.png',
   'DATA'),
  ('assets/themes/Breeze/button-empty.png',
   '/home/arnaud/fracatux/assets/themes/Breeze/button-empty.png',
   'DATA'),
  ('assets/images/pin_jaune.png',
   '/home/arnaud/fracatux/assets/images/pin_jaune.png',
   'DATA'),
  ('assets/images/reduire.png',
   '/home/arnaud/fracatux/assets/images/reduire.png',
   'DATA'),
  ('assets/images/pin_bleu.png',
   '/home/arnaud/fracatux/assets/images/pin_bleu.png',
   'DATA'),
  ('assets/themes/Breeze/notebook-tab-top-hover.png',
   '/home/arnaud/fracatux/assets/themes/Breeze/notebook-tab-top-hover.png',
   'DATA'),
  ('assets/images/pin_cyan.png',
   '/home/arnaud/fracatux/assets/images/pin_cyan.png',
   'DATA'),
  ('assets/images/pin_rose.png',
   '/home/arnaud/fracatux/assets/images/pin_rose.png',
   'DATA'),
  ('assets/themes/Breeze/button-focus.png',
   '/home/arnaud/fracatux/assets/themes/Breeze/button-focus.png',
   'DATA'),
  ('assets/themes/Breeze/arrow-right.png',
   '/home/arnaud/fracatux/assets/themes/Breeze/arrow-right.png',
   'DATA'),
  ('assets/themes/Breeze/button-toggled.png',
   '/home/arnaud/fracatux/assets/themes/Breeze/button-toggled.png',
   'DATA'),
  ('assets/themes/Breeze/scrollbar-slider-vert.png',
   '/home/arnaud/fracatux/assets/themes/Breeze/scrollbar-slider-vert.png',
   'DATA'),
  ('assets/images/pin_orange.png',
   '/home/arnaud/fracatux/assets/images/pin_orange.png',
   'DATA'),
  ('assets/images/logo.png',
   '/home/arnaud/fracatux/assets/images/logo.png',
   'DATA'),
  ('assets/themes/Breeze/radio-unchecked.png',
   '/home/arnaud/fracatux/assets/themes/Breeze/radio-unchecked.png',
   'DATA'),
  ('assets/themes/Breeze/button.png',
   '/home/arnaud/fracatux/assets/themes/Breeze/button.png',
   'DATA'),
  ('assets/themes/Breeze/button-hover.png',
   '/home/arnaud/fracatux/assets/themes/Breeze/button-hover.png',
   'DATA'),
  ('assets/themes/Breeze/radiobutton_unchecked.odg',
   '/home/arnaud/fracatux/assets/themes/Breeze/radiobutton_unchecked.odg',
   'DATA'),
  ('assets/images/icone.png',
   '/home/arnaud/fracatux/assets/images/icone.png',
   'DATA'),
  ('assets/themes/Breeze/radiobutton-checked-insensitive.odg',
   '/home/arnaud/fracatux/assets/themes/Breeze/radiobutton-checked-insensitive.odg',
   'DATA'),
  ('assets/themes/Breeze/notebook-tab-top.png',
   '/home/arnaud/fracatux/assets/themes/Breeze/notebook-tab-top.png',
   'DATA'),
  ('assets/themes/Breeze/arrow-up-insens.png',
   '/home/arnaud/fracatux/assets/themes/Breeze/arrow-up-insens.png',
   'DATA'),
  ('assets/themes/Breeze/notebook-client.png',
   '/home/arnaud/fracatux/assets/themes/Breeze/notebook-client.png',
   'DATA'),
  ('assets/themes/Breeze/checkbox-unchecked-pressed.png',
   '/home/arnaud/fracatux/assets/themes/Breeze/checkbox-unchecked-pressed.png',
   'DATA'),
  ('assets/themes/Breeze/notebook-tab-top-active.png',
   '/home/arnaud/fracatux/assets/themes/Breeze/notebook-tab-top-active.png',
   'DATA'),
  ('assets/themes/Breeze/arrow-up-small-prelight.png',
   '/home/arnaud/fracatux/assets/themes/Breeze/arrow-up-small-prelight.png',
   'DATA'),
  ('assets/themes/Breeze/radiobutton-checked-active.odg',
   '/home/arnaud/fracatux/assets/themes/Breeze/radiobutton-checked-active.odg',
   'DATA'),
  ('assets/themes/Breeze/scale-slider.odg',
   '/home/arnaud/fracatux/assets/themes/Breeze/scale-slider.odg',
   'DATA'),
  ('assets/themes/Breeze/arrow-down.png',
   '/home/arnaud/fracatux/assets/themes/Breeze/arrow-down.png',
   'DATA'),
  ('assets/images/main.png',
   '/home/arnaud/fracatux/assets/images/main.png',
   'DATA'),
  ('assets/themes/Breeze/scale-trough-vertical.png',
   '/home/arnaud/fracatux/assets/themes/Breeze/scale-trough-vertical.png',
   'DATA'),
  ('assets/themes/Breeze/arrow-up-prelight.png',
   '/home/arnaud/fracatux/assets/themes/Breeze/arrow-up-prelight.png',
   'DATA'),
  ('assets/themes/Breeze/arrow-right-prelight.png',
   '/home/arnaud/fracatux/assets/themes/Breeze/arrow-right-prelight.png',
   'DATA'),
  ('assets/images/pleinecran.png',
   '/home/arnaud/fracatux/assets/images/pleinecran.png',
   'DATA'),
  ('assets/themes/Breeze/entry-insensitive.png',
   '/home/arnaud/fracatux/assets/themes/Breeze/entry-insensitive.png',
   'DATA'),
  ('assets/themes/Breeze/scrollbar-slider-vert-active.png',
   '/home/arnaud/fracatux/assets/themes/Breeze/scrollbar-slider-vert-active.png',
   'DATA'),
  ('assets/images/decoupe_denominateur.png',
   '/home/arnaud/fracatux/assets/images/decoupe_denominateur.png',
   'DATA'),
  ('assets/themes/Breeze/scrollbar-trough-vert-active.png',
   '/home/arnaud/fracatux/assets/themes/Breeze/scrollbar-trough-vert-active.png',
   'DATA'),
  ('assets/themes/Breeze/radiobutton-unchecked-insensitive.odg',
   '/home/arnaud/fracatux/assets/themes/Breeze/radiobutton-unchecked-insensitive.odg',
   'DATA'),
  ('assets/themes/Breeze/radiobutton-checked.odg',
   '/home/arnaud/fracatux/assets/themes/Breeze/radiobutton-checked.odg',
   'DATA'),
  ('assets/themes/Breeze/arrow-left-prelight.png',
   '/home/arnaud/fracatux/assets/themes/Breeze/arrow-left-prelight.png',
   'DATA'),
  ('assets/themes/Breeze/arrow-down-small.png',
   '/home/arnaud/fracatux/assets/themes/Breeze/arrow-down-small.png',
   'DATA')],)
