('/home/arnaud/fracatux/build/fracatux/fracatux',
 True,
 False,
 True,
 None,
 None,
 False,
 False,
 None,
 True,
 True,
 False,
 None,
 None,
 None,
 '/home/arnaud/fracatux/build/fracatux/fracatux.pkg',
 [('PYZ-00.pyz', '/home/arnaud/fracatux/build/fracatux/PYZ-00.pyz', 'PYZ'),
  ('struct',
   '/home/arnaud/fracatux/build/fracatux/localpycs/struct.pyc',
   'PYMODULE'),
  ('pyimod01_archive',
   '/home/arnaud/fracatux/build/fracatux/localpycs/pyimod01_archive.pyc',
   'PYMODULE'),
  ('pyimod02_importers',
   '/home/arnaud/fracatux/build/fracatux/localpycs/pyimod02_importers.pyc',
   'PYMODULE'),
  ('pyimod03_ctypes',
   '/home/arnaud/fracatux/build/fracatux/localpycs/pyimod03_ctypes.pyc',
   'PYMODULE'),
  ('pyiboot01_bootstrap',
   '/home/arnaud/.local/lib/python3.8/site-packages/PyInstaller/loader/pyiboot01_bootstrap.py',
   'PYSOURCE'),
  ('pyi_rth__tkinter',
   '/home/arnaud/.local/lib/python3.8/site-packages/PyInstaller/hooks/rthooks/pyi_rth__tkinter.py',
   'PYSOURCE'),
  ('fracatux', '/home/arnaud/fracatux/fracatux.py', 'PYSOURCE')],
 [],
 False,
 False,
 1685100892,
 [('run',
   '/home/arnaud/.local/lib/python3.8/site-packages/PyInstaller/bootloader/Linux-64bit-intel/run',
   'EXECUTABLE')])
